{
	"label": "PF2E Активности исследования",
	"entries": {
		"Avoid Notice": {
			"name": "Избегать обнаружения",
			"description": "<p>@Compendium[pf2e.actionspf2e.IE2nThCmoyhQA0Jn]{Избегать обнаружения}</p>"
		},
		"Cover Tracks": {
			"name": "Заметать следы",
			"description": "<p>@Compendium[pf2e.actionspf2e.SB7cMECVtE06kByk]{Заметать следы}</p>"
		},
		"Defend": {
			"name": "Защищаться",
			"description": "<p>@Compendium[pf2e.actionspf2e.cYtYKa1gDEl7y2N0]{Защищаться}</p>"
		},
		"Detect Magic": {
			"name": "Обнаружение магии",
			"description": "<p>@Compendium[pf2e.actionspf2e.Yb0C1uLzeHrVLl7a]{Обнаружение магии}</p>"
		},
		"Follow The Expert": {
			"name": "Повторять за экспертом",
			"description": "<p>@Compendium[pf2e.actionspf2e.tfa4Sh7wcxCEqL29]{Повторять за экспертом}</p>"
		},
		"Hustle": {
			"name": "Спешить",
			"description": "<p>@Compendium[pf2e.actionspf2e.JuqmIAnkL9hVGai8]{Спешить}</p>"
		},
		"Investigate": {
			"name": "Исследовать",
			"description": "<p>@Compendium[pf2e.actionspf2e.EwgTZBWsc8qKaViP]{Исследовать}</p>"
		},
		"Repeat a Spell": {
			"name": "Повторять заклинание",
			"description": "<p>@Compendium[pf2e.actionspf2e.OQaFzDtVEOMWizJJ]{Повторять заклинание}</p>"
		},
		"Scout": {
			"name": "Разведывать",
			"description": "<p>@Compendium[pf2e.actionspf2e.kV3XM0YJeS2KCSOb]{Разведывать}</p>"
		},
		"Search": {
			"name": "Искать",
			"description": "<p>@Compendium[pf2e.actionspf2e.TiNDYUGlMmxzxBYU]{Искать}</p>"
		},
		"Track": {
			"name": "Выслеживание",
			"description": "<p>@Compendium[pf2e.actionspf2e.EA5vuSgJfiHH7plD]{Выслеживание}</p>"
		},
		"Unspecified Activity": {
			"name": "Неуказанная активность"
		}
	}
}