{
	"label": "Корона Короля кобольдов(*)",
	"mapping": {
		"name": {
			"path": "name",
			"converter": "actorNameConverter"
		},
		"blurb": "system.details.blurb",
		"description": "system.details.publicNotes",
		"language": "system.details.languages.details",
		"descriptionHazard": "system.details.description",
		"disable": "system.details.disable",
		"reset": "system.details.reset",
		"routine": "system.details.routine",
		"stealth": "system.attributes.stealth.details",
		"hp": "system.attributes.hp.details",
		"ac": "system.attributes.ac.details",
		"skills": {
			"path": "system.skills",
			"converter": "carefulMerge"
		},
		"items": {
			"path": "items",
			"converter": "actorItemCollectionConverter"
		}
	},
	"entries": {
		"Albino Giant Bat": {
			"name": "Гигантская летучая мышь-альбинос",
			"blurb": "Вариация гигантской летучей мыши",
			"items": [
				{
					"id": "asnBNrlk9Tix7FDg",
					"name": "Клыки"
				},
				{
					"id": "BftlVjmGxapS3CQl",
					"name": "Крылья"
				},
				{
					"id": "GnSziF2yiFansSy0",
					"name": "Эхолокация (точное) 40 футов",
					"description": "<p>Летучая мышь может в указанном радиусе использовать свой слух как точное чувство.</p>"
				},
				{
					"id": "FcKedsJnqgOZNITy",
					"name": "Бить крыльями",
					"description": "<p><strong>Триггер:</strong> Враг, находящийся рядом, наносит урон гигантской летучей мыши.</p>\n<hr />\n<p><strong>Эффект:</strong> Летучая мышь совершает 1 или 2 @UUID[Compendium.pf2e.actionspf2e.Item.VjxZFuUXrCU94MWR]{Удара} крыльями, один по спровоцировавшему существу, а второй по другому существу, находящемуся рядом.</p>"
				}
			]
		},
		"Ashen Guardian": {
			"name": "Пепельный страж",
			"blurb": "Вариация тени",
			"description": "<p>Эта таинственная @Trait[Undead]{нежить}, известная как тени, таится в темных местах и питается теми, кто слишком далеко отходит от света. Те, кто общается с тенями, обычно удерживая их на расстоянии с помощью светящегося оружия, могут узнать великие тайны, ведь тени — идеальные шпионы.</p>",
			"items": [
				{
					"id": "x47iDfIE9albveGl",
					"name": "Теневая рука"
				},
				{
					"id": "ACHlnYzXVxizzqPw",
					"name": "Уязвимость к свету",
					"description": "<p>Объект, отбрасывающий магический свет (как например, от заклинания @UUID[Compendium.pf2e.spells-srd.Item.WBmvzNDfpwka3qT4]) считается магическим при использовании для атаки тени.</p>"
				},
				{
					"id": "0Qt9ULbGzJV8ZG3W",
					"name": "Теневое порождение",
					"description": "<p>Когда тень существа вытянута на свободу с помощью \"Кражи тени\", она становится @UUID[Compendium.pf2e.pathfinder-monster-core.Actor.clzHAfegb9Rn6DOe]{Теневым порождением} под управлением создавшей его тени. У него нет умения \"Кража тени\" и оно всегда неизлечимо @UUID[Compendium.pf2e.conditionitems.Item.i3OJZU2nk64Df3xm]{Неуклюже 2}. Если существо, у которого было взято это теневое порождение, умирает, то теневое порождение становится полноценной самостоятельной тенью. Если существо восстанавливается от своего @UUID[Compendium.pf2e.conditionitems.Item.MIRkyAjyBeXivMa7]{Ослабления}, его тень возвращается к нему и теневое порождение пропадает.</p>"
				},
				{
					"id": "0QWVJ7Of8cQNKp0N",
					"name": "Скольжение в тенях",
					"description": "<p>Тень может @UUID[Compendium.pf2e.actionspf2e.Item.XMcnh4cSI32tljXa]{Спрятаться} или заканчивать @UUID[Compendium.pf2e.actionspf2e.Item.VMozDqMMuK5kpoX4]{Красться} в тени существа или объекта.</p>"
				},
				{
					"id": "Kjifw1jgDvfmrEGU",
					"name": "Украсть тень",
					"description": "<p><strong>Требования:</strong> Тень своим предыдущим действием попала по живому существу \"Ударом\" теневой руки.</p>\n<hr />\n<p><strong>Эффект:</strong> Тень тянет тень существа, делая его @UUID[Compendium.pf2e.conditionitems.Item.MIRkyAjyBeXivMa7]{Ослабленным 1}. Оно накапливается вместе с другими состояниями @Condition[Enfeebled]{ослаблен} от теней, до максимального @Condition[Enfeebled]{ослаблен 4}. Если это увеличивает у существа значение состояния @Condition[Enfeebled]{ослаблен} до 3 или более, то тень цели отделяется от ее тела (см. \"Теневое порождение\"). Состояние ослабления от \"Кражи тени\" снижается каждый час на 1.</p>"
				}
			]
		},
		"Avalanche Doors": {
			"name": "Падающие двери",
			"descriptionHazard": "<p>Двойные двери — это ложные двери; если потянуть за ручку, они падают как раздвижной мост, давя всех, кто стоит перед ними.</p>",
			"disable": "<p>@Check[type:thievery|dc:22]{Воровство} (обучен) отсоединить спусковой механизм от дверей и заблокировать их на месте</p>",
			"stealth": "<p>(эксперт)</p>",
			"hp": "ПП 25",
			"items": [
				{
					"id": "cLYUymLiixahfseg",
					"name": "Свалиться вперёд",
					"description": "<p><strong>Триггер:</strong> Кто-то пытается открыть двери, или наносит им достаточно урона, чтобы они стали сломаны;</p><p><strong>Эффект:</strong> Тяжёлые металлические двери под действием пружин опускаются, как разводной мост, и обрушиваются на всех существ в @Template[type:square|distance:10]{10-футовом квадрате} перед дверями. Все существа в этой области должны совершить спасбросок @Check[type:reflex|dc:21]{Рефлекса}.</p><hr /><p><strong>Критический успех:</strong> Существо бросается в сторону и не получает урона — переместите существо на клетку по выбору существа, прилегающую к области действия ловушки.</p><p><strong>Успех:</strong> Существо получает @Damage[3d8[bludgeoning]] урона и отбрасывается на соседнюю клетку за пределами области действия ловушки.</p><p><strong>Провал:</strong> Существо получает @Damage[6d8[bludgeoning]] урона, отбрасывается в соседнюю клетку за пределами области действия ловушки и падает @UUID[Compendium.pf2e.conditionitems.Item.j91X7x0XSomq8d60]{Ничком} в этой клетке.</p><p><strong>Критический провал:</strong> Существо получает @Damage[12d8[bludgeoning]] и падает @UUID[Compendium.pf2e.conditionitems.Item.j91X7x0XSomq8d60]{Ничком}. Тяжёлые двери прижимают существо к земле, @UUID[Compendium.pf2e.conditionitems.Item.eIcWbB5o3pP6OIMe]{обездвиживая} его (@UUID[Compendium.pf2e.actionspf2e.Item.SkZAQRkLLkmBQNB9]{Вырваться} [[/act escape dc=22]]{КС 22}). Не @Condition[Immobilized]{обездвиженный} персонаж может приподнять двери, @UUID[Compendium.pf2e.actionspf2e.Item.SjmKHgI7a5Z9JzBx]{Открыть силой} [[/act force-open dc=22]]{КС 22}, чтобы @Condition[Immobilized]{обездвиженный} персонаж смог отползти в безопасное место.</p>"
				}
			]
		},
		"Charge of the Spear Legion": {
			"name": "Атака легиона копейщиков",
			"descriptionHazard": "<p>При срабатывании комната резко наклоняется набок, заставляя всех находящихся в ней соскальзывать вниз, навстречу двойному ряду копий у западной стены, в то время как статуи у восточной стены соскальзывают вниз по системе тяговых цепей и врезаются в жертв.</p>",
			"disable": "<p>@Check[type:thievery|dc:20]{Воровство}, чтобы деактивировать нажимную плиту у северной двери.</p>",
			"reset": "<p>Через минуту зал возвращается в исходное положение, и ловушка сбрасывается.</p>",
			"stealth": "<p>(эксперт)</p>",
			"items": [
				{
					"id": "6uh2Ytol3twifsuI",
					"name": "Смещение набок",
					"description": "<p><strong>Триггер:</strong> Маленькое или больше существо оказывается в радиусе 15 футов от двойных в зону <strong>D9</strong>.</p>\n<p><strong>Эффект:</strong> Вся комната вращается, её западная половина опускается, а правая поднимается, образуя наклон в 45º вниз к западу. Все существа в комнате падают @UUID[Compendium.pf2e.conditionitems.Item.j91X7x0XSomq8d60]{Ничком} и скользят к западной стене (существо рядом с северной или южной стеной, может попытаться остановить падение действием @UUID[Compendium.pf2e.actionspf2e.Item.3yoajuKjwHZ9ApUY]{Cхватиться за уступ} [[/act grab-an-edge dc=20]]{КС 20}) и получают @Damage[(2d6+5)[piercing]] урона (простой спасбросок @Check[reflex|dc:20|basic]{Рефлекса}) от насаждения на копья. В то же время статуи с боевыми молотами на востоке скользят вниз на цепях, чтобы разбить нижнюю стену; каждый человек в ловушке подвергается \"Удару\" скользящей статуи.</p>"
				},
				{
					"id": "wzN8J4osvRa61D9u",
					"name": "Скользящая статуя"
				}
			]
		},
		"Cilios": {
			"name": "Цилиос",
			"blurb": "Мужчина, вариация мумии-стража",
			"description": "<p>Большинство мумий были созданы жестокими и эгоистичными хозяевами, чтобы служить стражами, защищающими их гробницы от посторонних. Традиционный метод создания мумии-стража — это трудоемкий и садистский процесс, который начинается задолго до смерти превращаемой бедной души, во время которого жертву ритуально лишают питательной пищи и вместо этого кормят странными специями, консервантами и токсинами, предназначенными для ускорения иссушения плоти. Жертва остаётся неподвижной, но болезненно осознающей себя на последних стадиях, когда из нее извлекаются теперь уже бесполезные внутренности, после чего ее заворачивают в погребальные пелены и помещают в заколдованный некромантией саркофаг, чтобы она ожидала вторжения в потенциально далеком будущем. Разумеется, можно использовать и другие методы для создания мумии-стража из уже умершего тела, те, кто стремится создать эту отвратительную нежить в качестве своих хранителей в загробной жизни, часто считают, что такие методы приводят к созданию неполноценной нежити — боль и агония смерти от мумификации являются необходимым этапом этого процесса.</p>\n<p>Независимо от способа своего создания, мумии-стражи — не просто физические оболочки из плоти и костей, они сохраняют частичные, искаженные версии своего разума, в котором осталось достаточно воспоминаний о своей живой личности, лишь чтобы питать гнев нежити и зависть к тем, кто еще жив. Эта жгучая ярость только усиливается веками ожидания в склепе за шанс действовать, поэтому, когда большинство мумий-стражей пробуждаются грабителями гробниц или авантюристами, они не останавливаются ни перед чем в погоне за славной расправой.</p>\n<hr />\n<p>В то время как во многих культурах мумификация умерших практикуется по благим причинам, мумии-нежить создаются с помощью нечестивых ритуалов, обычно, для создания вечно бдительных стражей.</p>",
			"language": "любой один древний язык",
			"hp": "исцеление пустотой",
			"items": [
				{
					"id": "EWqlu1saEnvsN9kN",
					"name": "Кулак"
				},
				{
					"id": "1ich4lSlipgnuhyC",
					"name": "Отчаяние",
					"description": "<p>30 футов.</p>\n<p>Живые существа, находящиеся в области ауры отчаяния мумии-стража, @UUID[Compendium.pf2e.conditionitems.Item.TBSHQspnbcqxsmjL]{Напуганы 1}. Находясь в данной области, они не могут естественным образом оправиться от этого страха, но мгновенно восстанавливаются как только покидают её. Когда существо впервые попадает в эту область, оно должно преуспеть в спасброске @Check[will|dc:22]{Воли} (после получения штрафа от состояния @Condition[Frightened]{напуган}) или будет @UUID[Compendium.pf2e.conditionitems.Item.6uEgoh53GbXuHpTF]{Парализовано} на 1 раунд. После этого существо временно иммунно на 24 часа.</p>\n<p>@UUID[Compendium.pf2e.bestiary-effects.Item.1bOSJ2LbEC28aI9f]</p>"
				},
				{
					"id": "ADmvv8bwerUunNDn",
					"name": "Исцеление пустотой"
				},
				{
					"id": "lWRMX2nvHXtnZwZM",
					"name": "Ослепляющая гниль",
					"description": "<p>\"Удары\" кулаком Цилиоса подвергают тех, кого они поражают, \"Ослепящей гнили\". Эта @Trait[Disease]{болезнь} и любой урон от неё не могут быть исцелены, пока это @Trait[Curse]{проклятие} не будет снято. Существо, убитое \"Ослепящей гнилью\", превращается в пыль и не может быть воскрешено, кроме как ритуалом 7-го ранга @UUID[Compendium.pf2e.spells-srd.Item.kqhPt9344UkcGVYO] или подобной магией.</p><p><strong>Спасбросок:</strong> @Check[fortitude|dc:22]{Стойкость}</p><hr /><p><strong>Стадия 1:</strong> переносчик не имеет эффектов заболевания (1 минута)</p><p><strong>Стадия 2:</strong> @Damage[4d6[void]] и @UUID[Compendium.pf2e.conditionitems.Item.TkIyaNPgTZFBCCuh]{Ослеплён} (1 день)</p><p><strong>Стадия 3:</strong> @Damage[4d6[void]] и @UUID[Compendium.pf2e.conditionitems.Item.XgEqL1kFApUbl5Z2]{Слепота} (1 день)</p>"
				}
			]
		},
		"Dark Talon Kobold": {
			"name": "Кобольд из Тёмных когтей",
			"blurb": "Кобольд плут",
			"skills": {
				"crafting": {
					"special": {
						"0": {
							"label": "для ловушек"
						}
					}
				}
			},
			"items": [
				{
					"id": "jctpBQWuFFttiT6k",
					"name": "Летающий коготь"
				},
				{
					"id": "KUG65LaUPdwdKuKn",
					"name": "Летающий коготь"
				},
				{
					"id": "TehURl8rT4BuCGV2",
					"name": "Ни шагу назад",
					"description": "<p><strong>Частота:</strong> Раз в день</p>\n<p><strong>Требования:</strong> Кобольд из Тёмных когтей находится рядом хотя бы с одним противником, и у него меньше 12 ОЗ</p>\n<hr />\n<p><strong>Эффект:</strong> Тёмный коготь яростно верещит и восстанавливает @Damage[2d6[healing]].</p>"
				},
				{
					"id": "UE9mEDc1fPQ7EFV7",
					"name": "Внезапная атака",
					"description": "<p>Кобольд из Тёмных когтей наносит дополнительно 1d6 точного урона @UUID[Compendium.pf2e.conditionitems.Item.AJh5ex99aV6VTggg]{Застигнутым врасплох} существам.</p>"
				}
			]
		},
		"Darkmantle": {
			"name": "Сумрачник",
			"description": "<p>Эти тёмно-синие или чёрные моллюскообразные существа внешне похожи на осьминогов, за исключением того, что у них всего шесть щупалец, все из которых соединены толстым кожным покровом. Хотя сумрачник не особенно хорош в скалолазании, он отлично цепляется и может цепляться за свод пещеры в течение нескольких дней, терпеливо ожидая напасть на любую добычу, которая идет под ним, дезориентирующим сгустком тьмы. Когда сумрачник цепляется за свод пещеры и его выпуклые красные глаза закрыты или прищурены, в засаде он похож на сталактит. Их предпочтительный метод охоты лучше всего работает на существах без ночного зрения, поэтому они часто посещают руины над землей или неглубокие пещеры недалеко от внешнего мира. Когда сумрачник чувствует добычу, он исторгает тьму на свою добычу, прежде чем спрыгнуть с потолка, чтобы быстро спуститься к своей жертве, после чего эти чудовища хватаются и сжимают её своими толстыми, мускулистыми щупальцами. Несмотря на форму сумрачников, текстура их тел больше похожа на толстую кожу или даже резину — они не могут нанести урон своими шипообразными телами, падая на других существ.</p>\n<p>У сумрачников быстрый жизненный цикл — их детёныши достигают зрелости за несколько месяцев, и большинство этих существ умирают от старости, прожив всего несколько лет. В результате поколения сумрачников быстро размножаются, и с годами они выработали такую ​​же быструю склонность к адаптации к новым местам. Например, водные пещеры могут быть кишеть сумрачниками, которые умеют плавать, а не летать; с другой стороны, ледяные пещеры могли бы привести к сумрачникам, которые приобрели бы белую или бледно-голубую окраску, и эти особи могли бы производить взрывы затемняющего тумана вместо тьмы. Ходят слухи, что в самых глубоких, самых темных уголках Темноземья обитают сумрачники невероятных размеров, способные одновременно задушить несколько жертв размером с человека. Эти глубоко сумрачники мантии обладают способностью излучать более мощную тьму, которая может погрузить даже существ с ночным зрением в чернильную тьму — тьму, в которой эти глубинные существа, конечно же, всё ещё могут отлично видеть.</p>",
			"items": [
				{
					"id": "nZ1VTmD23ber3Xs8",
					"name": "Щупальца"
				},
				{
					"id": "KDLArWFsnVlzq9p3",
					"name": "Виброчувствительность (точное) 60 футов"
				},
				{
					"id": "UMgQr2Wl0tRhRLpp",
					"name": "Сжимать",
					"description": "<p>@Damage[1d8[bludgeoning]], простой спасбросок @Check[fortitude|dc:17|basic]{Стойкости}</p>\n<hr />\n<p>@Localize[PF2E.NPC.Abilities.Glossary.Constrict]</p>"
				},
				{
					"id": "jYqUfCeV3KNH2GSV",
					"name": "Исторгнуть тьму",
					"description": "<p>Сумрачник исторгает из себя чернильно-чёрный пузырь жидкости. Он может метнуть его горизонтально на расстояние до 30 футов или дать упасть максимум на 120 футов вниз (покров тьмы, пролетевший более 120 футов, испаряется без последствий). При столкновении пузырь создаёт тьму в @Template[type:burst|distance:10]{10-футовом взрыве}. Свет не проникает в область, а любые немагические источники света в её пределах не испускают свет, пока находятся в ней, даже если радиус их света больше. @Trait[Darkness]{Тьма} подавляет магический @Trait[Light]{свет} 1 ранга и ниже, но не действует на 2 ранг и выше. Снаружи покров тьмы выглядит как шар кромешной черноты. После применения способности сумрачник может использовать её повторно только через 24 часа.</p>"
				},
				{
					"id": "aIBr8fPXzpp8pGEq",
					"name": "Захват"
				}
			]
		},
		"Dismemberment Table": {
			"name": "Расчленяющий стол",
			"blurb": "Вариация оживлённого объекта",
			"ac": "18 когда сломан",
			"items": [
				{
					"id": "GonXNeFxZd1EXVRd",
					"name": "Лезвие"
				},
				{
					"id": "xFO6YbyXbmMagH8n",
					"name": "Ремень"
				},
				{
					"id": "bgft8dozRgFOgyE1",
					"name": "Броня конструкта (Твёрдость 8)",
					"description": "<p>Как обычные объекты, оживший доспех имеет Твердость. Эта Твердость снижает любой получаемый урон на величину этой Твердости.</p>\n<p>Как только ОЗ ожившего доспеха снижаются ниже половины, или сразу после получения урона от критического попадания, его броня конструкта ломается и КБ снижается до 18.</p>"
				},
				{
					"id": "DXk3Wc33HEkJFxqp",
					"name": "Одержимый призраком",
					"description": "<p>Расчленяющий стол подпитывается энергией неупокоенных духов и получает урон от жизненности, как если бы он был @Trait[Undead]{нежитью}. Жизненность преодолевает твёрдость стола.</p>"
				},
				{
					"id": "npQTxsdno33hP6M0",
					"name": "Расчленяющий удар",
					"description": "<p>Расчленяющий стол совершает @UUID[Compendium.pf2e.actionspf2e.Item.VjxZFuUXrCU94MWR] лезвием по одной цели, которую он в @UUID[Compendium.pf2e.conditionitems.Item.kWc1fhmv9LBiTuei]{Схватил} или @UUID[Compendium.pf2e.conditionitems.Item.VcDeM8A5oI6VqhbM]{Сдерживает}. Если \"Удар\" попадает, лезвие глубоко врезается в одну из конечностей цели. Цель должна совершить спасбросок @Check[type:fortitude|dc:22]{Стойкости}.</p><hr /><p><strong>Критический успех:</strong> Существо не получает никаких дополнительных эффектов.</p><p><strong>Успех:</strong> Существо получает @Damage[1d6[bleed]].</p><p><strong>Провал:</strong> Существо получает @Damage[2d6[bleed]] и @UUID[Compendium.pf2e.conditionitems.Item.i3OJZU2nk64Df3xm]{Неуклюже 1}. Состояние @Condition[Clumsy]{неуклюжести} заканчивается, когда существо восстанавливает все свои ОЗ.</p><p><strong>Критический провал</strong> Как провал, но существо @UUID[Compendium.pf2e.conditionitems.Item.i3OJZU2nk64Df3xm]{Неуклюже 2}.</p>"
				}
			]
		},
		"Drazmorg The Damned": {
			"name": "Дразморг Проклятый",
			"blurb": "Мужчина, вариация умертвия, некромант",
			"hp": "исцеление пустотой",
			"items": [
				{
					"id": "2UyH9S27A0ESvrms",
					"name": "Подготовленные арканные заклинания"
				},
				{
					"id": "lH1tIJITBrZaqyoR",
					"name": "Коготь"
				},
				{
					"id": "kKZ6JMMRcRSvcCw9",
					"name": "Финальная злость",
					"description": "<p><strong>Триггер:</strong> ОЗ умертвия снижены до 0.</p>\n<hr />\n<p><strong>Эффект:</strong> Перед уничтожением умертвие наносит \"Удар\". При этом \"Ударе\", оно не получает временных ОЗ от \"Истощения жизни\".</p>"
				},
				{
					"id": "RP2BkxgQg0lXB8Lh",
					"name": "Исцеление пустотой"
				},
				{
					"id": "e3MsLR0uK5l51Zvg",
					"name": "Истощение жизни",
					"description": "<p>Когда умертвие наносит живому существу урон своим \"Ударом\" когтями, то получает [[/r 3 #Временные ОЗ]]{3 ВОЗ} и существо должно преуспеть в спасброске @Check[fortitude|dc:25]{Стойкости} или будет @UUID[Compendium.pf2e.conditionitems.Item.4D2KBtexWXa6oUMR]{Истощено 1}. Дальнейший урон, наносимый умертвием, при провале спасброска увеличивает состояние @Condition[Drained]{истощения} на 1, до максимального @Condition[Drained]{истощен 4}.</p>"
				},
				{
					"id": "odphWSrdvx0b9PQE",
					"name": "Поднять стену из костей",
					"description": "<p><strong>Частота:</strong> Раз в день</p><p><strong>Требования:</strong> Дразморг находится в Нижнем хранилище Горнила Дроскара.</p><hr /><p><strong>Эффект</strong> Дразморг использует некромантическую энергию, наполняющую область, и заставляет подняться из земли спутанную стену из костей. Толщина стены составляет 5 футов, ширина - 10 футов, высота - 10 футов; созданная стена сохраняется до тех пор, пока Дразморг снова не использует эту способность, после чего ранее созданная костяная стена (например, в зоне <strong>G2</strong>) разрушается. Костяная стена имеет КБ 10, Твёрдость 10 и 25 ОЗ. Она имеет иммунитет к критическим попаданиям и точному урону, а в конце раунда восстанавливает @Damage[2d6[healing]] ОЗ. Всё, что находится по обе стороны стены, получает большее укрытие от существ с противоположной стороны, и через стену невозможно пройти. Через разрушенную часть костяной стены можно свободно перемещаться, и она не исцеляет полученный урон. Существо, оказавшееся в пространстве при создании костяной стены, должно совершить спасбросок @Check[type:reflex|dc:25|traits:damaging-effect]{Рефлекса}.</p><hr /><p><strong>Критический успех</strong> Существо не подвержено воздействию, и костяная стена не образуется ни на одной из клеток, занимаемых этим существом.</p><p><strong>Успех</strong> Существо вынуждено переместиться в соседнюю клетку по своему выбору, так как на его месте образуется костяная стена.</p><p><strong>Провал:</strong> Как успех, но существо также падает @UUID[Compendium.pf2e.conditionitems.Item.j91X7x0XSomq8d60].</p><p><strong>Критический провал:</strong> Как провал, но существо также получает @Damage[4d6[piercing],4d6[bludgeoning]] от столкновения с костяной стеной.</p>"
				},
				{
					"id": "U6xYGQ1hJXlEuh1T",
					"name": "Порождение умертвия",
					"description": "<p>Живой @Trait[Humanoid]{гуманоид}, убитый \"Ударом\" когтей умертвия, восстает как @UUID[Compendium.pf2e.pathfinder-bestiary.Actor.ZPjQkKVMi3xoPcU0] через [[/gmr 1d4 #Трансформация порождения умертвия]]{1d4 раунда}. Это порождение управляется убившим его умертвием. У него нет умений \"Истощение жизни\" или \"Порождение умертвия\" и оно @UUID[Compendium.pf2e.conditionitems.Item.i3OJZU2nk64Df3xm]{Неуклюже 2} пока является порождением умертвия. Если создатель этого порождения умирает, порождение становится полноценным, самостоятельным умертвием; оно восстанавливает свободу воли, получает \"Истощение жизни\" и \"Порождение умертвия\", и перестает быть @Condition[Clumsy]{неуклюжим}.</p>"
				},
				{
					"id": "rSmBZqVHEA9cBDaQ",
					"name": "Академические знания"
				}
			]
		},
		"Edgrin Galesong": {
			"name": "Эдгрин Гейлсонг",
			"blurb": "Мужчина, полурослик, бард",
			"items": [
				{
					"id": "zcOSaomlWIBd41J0",
					"name": "Спонтанные оккультные заклинания"
				},
				{
					"id": "gy89zfp11Hqy0IX9",
					"name": "Заклинания-композиции барда"
				},
				{
					"id": "kHS24HJvbftK8nHf",
					"name": "Сломанная лютня"
				},
				{
					"id": "DmHIc7tMDrtjvqd7",
					"name": "Грязная одежда"
				},
				{
					"id": "K7Cv36hn74E1hSXx",
					"name": "Кулак"
				},
				{
					"id": "niCrZquLisStvyev",
					"name": "Знания барда",
					"description": "<p>Эдгрин может @UUID[Compendium.pf2e.actionspf2e.Item.1OagaWtBpVXExToo] по любой теме с модификатором +7.</p>"
				},
				{
					"id": "nlOFCMECKU352pNf",
					"name": "Знания барда"
				}
			]
		},
		"Explosive Crystal Spheres": {
			"name": "Взрывные кристальные сферы",
			"descriptionHazard": "<p>SМерцающие, украшенные глифами кристаллические сферы диаметром 2 фута мерцают и уплотняются в воздухе, взрываясь рядом с незванными гостями.</p>",
			"disable": "<p>@Check[thievery|dc:25]{Воровство} (эксперт) чтобы найти и повредить крошечные руны активации, расположенные в одном из шести мест, где рождаются кристаллические сферы, или @Check[arcana|dc:28]{Аркана} (эксперт) или @Check[occultism|dc:28]{Оккультизм} (эксперт) воздействовать на магическую энергию в одном из этих мест, чтобы сделать сферы инертными, или @UUID[Compendium.pf2e.spells-srd.Item.9HpwDN4MYQJnW0LG] (3-й ранг; КС Противодействия 22) для противодействия одной из точек появления кристальных сфер</p>",
			"routine": "<p>(6 действий) При каждом действии ловушки кристаллическая сфера, которая ещё не совершала действий в течение хода, либо пролетает 25 футов в сторону ближайшего существа во Внешнем кольце (если в радиусе 25 футов нет существ), либо атакует видимое существо в радиусе 25 футов (кристаллические сферы могут различать цели с помощью ночного зрения). Если кристаллическая сфера атакует цель, та получает @Damage[1d6[force]] (простой спасбросок @Check[reflex|dc:24|basic]{Рефлекса}) когда сфера врезается в неё и разрывается. Существо может быть атаковано несколькими сферами за ход, но сфера всегда выбирает ближайшую цель. После того как сфера атаковала и разорвалась, она исчезает, но в начале следующего хода появляется в исходной точке и повторяет свой цикл. Сфера, которая была уничтожена или выведена из строя, исчезает и не продолжает появляться и атаковать, а ловушка теряет 1 действие за каждую уничтоженную или выведенную из строя таким образом сферу.</p>",
			"stealth": "<p>(эксперт)</p>",
			"hp": "ПП 27",
			"items": [
				{
					"id": "xbuYMDDqNnf32EkB",
					"name": "Проявить кристальную сферу",
					"description": "<p><strong>Триггер:</strong> Три или более существ находятся во Внешнем Кольце в течение 6 секунд или дольше;</p>\n<p><strong>Эффект:</strong> Шесть кристальных сфер, каждая диаметром 2 фута, появляются из воздуха и начинают быстро лететь к незванныым гостям. Сфера появляется в каждой из точек на карте, обозначенных маленькой цифрой (от 1 до 6); ловушка бросает инициативу.</p>"
				}
			]
		},
		"Falling Debris": {
			"name": "Падающие обломки",
			"descriptionHazard": "<p>На любого, кто войдёт в комнату, падает сетка с камнями и маленькой наковальней.</p>",
			"disable": "<p>@Check[type:thievery|dc:17]{Воровство}, чтобы обезвредить ловушку, просунув руку через открывшуются дверь, <span class=\"action-glyph\">3</span> @UUID[Compendium.pf2e.actionspf2e.Item.pvQ5rY2zrtPI614F] медленно открыть дверь, чтобы ловушка не сработала.</p>",
			"items": [
				{
					"id": "l1OfrHe8KF3rupVc",
					"name": "Сброс обломков",
					"description": "<p><strong>Триггер:</strong> существо открывает дверь, не позаботившись о том, чтобы обезвредить ловушку или избежать её.</p><p><strong>Эффект:</strong> из сетки на существо падает дюжина увесистых камней и небольшая, но очень тяжёлая наковальня, нанося @Damage[3d6[bludgeoning]] (простой спасбросок @Check[type:reflex|dc:17|basic:true]{Рефлекса}). Грохот сработавшей ловушки оповестит Гартлкепа в зоне <strong>C8</strong> о незванных гостях.</p>"
				}
			]
		},
		"Foolish Hunter": {
			"name": "Безрассудный охотник",
			"items": [
				{
					"id": "aU6nLbpM2TvutNC1",
					"name": "Набедренные фляги",
					"description": "<p>Наполнены дешёвым элем и вином</p>"
				},
				{
					"id": "BW1Ne4PM0I1tZcvG",
					"name": "Кинжал"
				},
				{
					"id": "4iCgHzvmzWZ41oeF",
					"name": "Короткий лук"
				},
				{
					"id": "AbbLUpSpiUGeqVJo",
					"name": "Немного пьян",
					"description": "<p>При первой столкновении охотники слегка пьяны и получают штраф -1 ко всем проверкам, пока не протрезвеют.</p>"
				},
				{
					"id": "IAoQfxhndELujQWI",
					"name": "Охотничьи знания"
				}
			]
		},
		"Grick": {
			"name": "Грик",
			"description": "<p>Червеобразные грики терроризируют пещеры и туннели, в которых они обитают, затаившись возле оживлённых подземных проходов или подземных городов, чтобы выскочить из темноты и схватить свою добычу. Те, кого сразил грик, редко съедаются на месте. Вместо этого грикки приносят свежую еду обратно в свое логово в тесной норе или высоко на уступе пещеры, где съедают добычу небольшими кусочками в свое удовольствие.</p>\n<p>Происхождение гриков неизвестно. Несмотря на то что эти существа обладают рудиментарным интеллектом, у них нет никакой социальной структуры, о которой можно было бы говорить. Большинство гриков встречаются в одиночку. Даже в тех случаях, когда несчастные путешественники встречают несколько гриков в небольших группах, эти грики, похоже, не общаются и не работают вместе; каждый из них нападает на отдельную цель и отступает со своей наградой, как только ему удается уничтожить противника. Способные хищники, грики также обладают странно устойчивой к оружию шкурой, что делает их особенно опасными для неподготовленных. Многие начинающие авантюристы пали от атак гриков только потому, что не смогли нанести им урон своим немагическим оружием. Те, кто знаком с гриками (особенно дварфы, морлоки и зулгаты), знают, что лучшая стратегия борьбы с ними, если нет доступа к магическому оружию, - отступить и дождаться более мощного или магического подкрепления.</p>\n<p>Грики полагаются на свой тёмный окрас и способность карабкаться по стенам, чтобы оставаться незамеченными до тех пор, пока они не будут готовы устроить засаду. Иногда, когда в каком-то районе становится мало пищи, грики выходят на поверхность и бродят по пустыне в поисках добычи, но эти путешествия почти всегда вызваны необходимостью и длятся лишь до тех пор, пока они не находят входы в новые подземные логова. Эти существа предпочитают темноту и комфорт потолка над головой; они избегают открытого неба и делают всё возможное, чтобы между ними и землёй над головой не было ни деревьев, ни низких облаков, ни зданий.</p>\n<p>Некоторые общества Темноземья пытались нанять гриков в качестве стражей или даже тягловых зверей, но их интеллекта - в лучшем случае среднего - более чем достаточно, чтобы они упрямо сопротивлялись и даже возмущались попытками \"дрессировки.\" Лучшее, что удается большинству обществ, - это сделать грика-стража счастливым, обеспечив ему хорошее питание и комфорт.</p>",
			"language": "не может говорить ни на одном языке",
			"skills": {
				"stealth": {
					"special": {
						"0": {
							"label": "в каменистой местности"
						}
					}
				}
			},
			"items": [
				{
					"id": "ApMfsHI0r4QcMdC0",
					"name": "Челюсти"
				},
				{
					"id": "UJXYAz10nWNlFpR8",
					"name": "Щупальце"
				},
				{
					"id": "2c9dmAUlyJ9d8e6I",
					"name": "Хватающее щупальце",
					"description": "<p><strong>Триггер:</strong> Существо в пределах досягаемости монстра использует действие с признаком @Trait[Move]{движение} или покидает квадрат во время используемого действия с признаком @Trait[Move]{движение}.</p>\n<p><strong>Эффект:</strong> Грик совершает @UUID[Compendium.pf2e.actionspf2e.Item.VjxZFuUXrCU94MWR] щупальцем по существу. Если эта атака является критическим попаданием и спровоцировавшее действие было с признаком @Trait[Move]{движение}, то грик прерывает это действие.</p>"
				}
			]
		},
		"Grimbal": {
			"name": "Гримбал",
			"blurb": "Мужчина, призрак дварфа",
			"hp": "исцеление пустотой, восстановление",
			"items": [
				{
					"id": "1R8juxtkkeNAAos5",
					"name": "Призрачная рука"
				},
				{
					"id": "ER9NpWhgu3Hql80O",
					"name": "Связь с местом",
					"description": "<p>Типичное привидение может отдалиться лишь на небольшое расстояние от места, где оно было убито, или от места, которое он населяет. Типичное ограничение — 120 футов. Вместо этого, некоторые привидения привязаны не к месту, а к комнате, зданию, предмету или существу, которое было для них особенным.</p>"
				},
				{
					"id": "9AAlaca8W82kl0jk",
					"name": "Восстановление",
					"description": "<p>Возвращение головы Гримбала из зоны <strong>F4</strong> к его останкам в этой комнате позволяет ему уйти в загробную жизнь.</p>"
				},
				{
					"id": "y355a8gvrvI1fhmp",
					"name": "Исцеление пустотой"
				},
				{
					"id": "2f5j3CGL9JfnJVp2",
					"name": "Истощение разума",
					"description": "<p>Когда Гримбал наносит урон живому существу своим \"Ударом\" призрачной руки, призрак получает 5 временных ОЗ, и существо должно преуспеть в спасброске @Check[type:will|dc:24]{Воли} или будет @UUID[Compendium.pf2e.conditionitems.Item.e1XGnhKNSQIm5IXg]{Одурманено 1}. Дальнейший наносимый призраком урон увеличивает значение @Condition[Stupefied]{одурманен} на 1, при провале спасброска, до максимального значения @Condition[Stupefied]{одурманен 4}. Каждый раз, когда существо, пораженное \"Истощением разума\", получает полноценный ночной отдых, значение его состояния @Condition[Stupefied]{одурманен}, вызванного этой способностью, уменьшается на 1.</p>"
				}
			]
		},
		"Gurtlekep": {
			"name": "Гартлкеп",
			"blurb": "Мужчина, кобольд, дозорный",
			"skills": {
				"crafting": {
					"special": {
						"0": {
							"label": "для ловушек"
						}
					}
				}
			},
			"items": [
				{
					"id": "upAgBiWAndJgpCCm",
					"name": "Инструменты вора",
					"description": "<p>Вам нужны инструменты вора для @UUID[Compendium.pf2e.actionspf2e.Item.2EE4aF4SZpYf0R6H]{Вскрытия замков} или @UUID[Compendium.pf2e.actionspf2e.Item.cYdz2grcOcRt4jk6]{Отключения некоторых устройств}, используя навык Воровства.</p>\n<p>Если ваши <em>инструменты вора</em> поломались, их можно починить, заменив отмычки, используя @UUID[Compendium.pf2e.equipment-srd.Item.Sw7MBLASN3xK4Y44]{Запасные отмычки}, соответствующие вашему набору; это не требует использования действия \"Ремонт\".</p>"
				},
				{
					"id": "HMgUM4I7WOmOy2JO",
					"name": "Короткий меч"
				},
				{
					"id": "Oh11Xk434sOXGRtR",
					"name": "Кинжал"
				},
				{
					"id": "oduMPbBNSQDOKSGB",
					"name": "Пырни-и-убеги",
					"description": "<p><strong>Требования:</strong> Гартлкеп держит в руке кинжал и находится рядом хотя бы с одним противником.</p>\n<hr />\n<p><strong>Эффект:</strong> Гартлкеп @UUID[Compendium.pf2e.actionspf2e.Item.Bcxarzksqt9ezrs6]{Перемещается} на расстояние вплоть до своей скорости +5 футов, а затем пытается совершить дистанционный @UUID[Compendium.pf2e.actionspf2e.Item.VjxZFuUXrCU94MWR]{Удар} кинжалом, который держит. Кобольд должен завершить перемещение в пространстве не рядом с противником.</p>"
				},
				{
					"id": "WRSDZDXeJFEUa7qh",
					"name": "Внезапная атака",
					"description": "<p>Гартлкеп наносит дополнительно 1d6 точного урона @UUID[Compendium.pf2e.conditionitems.Item.AJh5ex99aV6VTggg]{Застигнутым врасплох} существам.</p>"
				}
			]
		},
		"Hymmir Urath": {
			"name": "Химмир Урат",
			"blurb": "Мужчина, гуль человека-варвара",
			"hp": "исцеление пустотой",
			"items": [
				{
					"id": "rN1lJEDn8cRjC0tw",
					"name": "Челюсти"
				},
				{
					"id": "lV4WLXhsHrlLT6VM",
					"name": "Коготь"
				},
				{
					"id": "qsCseYYwlyaBwwGh",
					"name": "Исцеление пустотой"
				},
				{
					"id": "P0XsAOm1RW98cAOf",
					"name": "Поглощение плоти",
					"description": "<p><strong>Требования:</strong> Гуль рядом с трупом существа, которое умерло за прошедший час.</p>\n<hr />\n<p><strong>Эффект:</strong> Гуль пожирает кусок трупа и восстанавливает @Damage[3d6[healing]].</p>\n<p>Он может восстановить ОЗ с каждого конкретного трупа только 1 раз.</p>"
				},
				{
					"id": "8cAvxsLcPEt4wzWD",
					"name": "Лихорадка гуля",
					"description": "<p><strong>Спасбросок:</strong> @Check[fortitude|dc:22]{Стойкость}</p>\n<hr />\n<p><strong>Стадия 1:</strong> Переносчик не имеет эффектов заболевания (1 день)</p>\n<p><strong>Стадия 2:</strong> @Damage[2d6[void]] и существо восстанавливает половину ОЗ от всего исцеления (1 день)</p>\n<p><strong>Стадия 3:</strong> как стадия 2 (1 день)</p>\n<p><strong>Стадия 4:</strong> @Damage[2d6[void]] и существо не восстанавливает ОЗ от исцеления (1 день)</p>\n<p><strong>Стадия 5:</strong> как стадия 4 (1 день)</p>\n<p><strong>Стадия 6:</strong> Смерть и в следующую полночь существо восстает как @UUID[Compendium.pf2e.pathfinder-bestiary.Actor.LHHgGSs0ELCR4CYK].</p>"
				},
				{
					"id": "dUJd1zx7XqUxEzA3",
					"name": "Откусить и прожевать",
					"description": "<p><strong>Требования:</strong> Химмир в \"Голодной ярости\"</p>\n<hr />\n<p><strong>Эффект:</strong> Химмир совершает @UUID[Compendium.pf2e.actionspf2e.Item.VjxZFuUXrCU94MWR] челюстями. Если он попадает, то прогрызает свою цель и наносит ей дополнительно 1d6 режущего урона. Химмир восстанавливает [[/r 3d6[healing]]] ОЗ.</p>"
				},
				{
					"id": "tmZP19CJWttr5t5J",
					"name": "Голодная ярость",
					"description": "<p><strong>Триггер:</strong> Химмир наносит урон живому существу \"Ударом\" челюстями.</p>\n<hr />\n<p><strong>Эффект:</strong> Вкус плоти и крови ввергает Химмира в ярость. Он получает 9 временных ОЗ, наносит дополнительно 2 урона \"Ударами\" ближнего боя и получает штраф -1 к КБ на 1 минуту.</p>\n<p>@UUID[Compendium.pf2e.feat-effects.Item.z3uyCMBddrPK5umr]</p>"
				},
				{
					"id": "aOE7cRyxzNFEoxMc",
					"name": "Паралич",
					"description": "<p>Любое живое существо, не являющееся эльфом, по которому попала атака гуля, должно преуспеть в спасброске @Check[fortitude|dc:22]{Стойкости} или будет @UUID[Compendium.pf2e.conditionitems.Item.6uEgoh53GbXuHpTF]{Парализовано}. Оно может совершать новый спасбросок в конце каждого своего хода и при каждом таком спасброске, КС совокупно снижается на 1.</p>"
				},
				{
					"id": "q6ky2MX1NHs8dR4W",
					"name": "Резкий прыжок",
					"description": "<p>Гуль прыгает вплоть до половины своей Скорости. Это передвижение не провоцирует реакции.</p>"
				}
			]
		},
		"Id Ooze": {
			"name": "Слизь ид",
			"description": "<p>Не вся слизь - безмозглые хищники, способные лишь нападать из засады и поедать добычу. Слизь ид - мыслящие, расчётливые существа, способные воплощать в жизнь сложные замыслы и планы и не только ради добычи пищи. Слизь ид может десятилетиями или даже веками как предаваться философским размышлениям, так и ползать по служащей ей домом, подземным рекам и влажным пещерам.</p>\n<p>Слизь ид получает пропитание из органики, но, не имея возможности добывать пищу из растений или животных, она может веками существовать в полуспящем состоянии, медленно поглощая остатки психических энергий в местах, где были пережиты сильные эмоции, например в древних храмах, в которых когда-то жили целые поколения верующих, в поселениях, переживших ужасные войны или разрушительные катастрофы, или даже просто в доме могущественного оккультного заклинателя, чьи отголоски мыслей остаются на стенах еще долго после ухода из жизни.</p>\n<p>Слизь ид предпочитает воду, но и на суше чувствует себя уверенно. Это склизкое существо выглядит как пятно воды, пока не придет в движение: тогда его студенистое тело собирается в единую массу и наносит удар, подобно разъярённой змее.</p>",
			"language": "(не может говорить ни на одном языке); телепатия 60 футов",
			"skills": {
				"stealth": {
					"special": {
						"0": {
							"label": "во влажных зонах"
						}
					}
				}
			},
			"items": [
				{
					"id": "QPsSfTaTFvOGNw5G",
					"name": "Врождённые оккультные заклинания"
				},
				{
					"id": "4qOtptXYGdppLCHi",
					"name": "Ложноножка"
				},
				{
					"id": "bkcQCbtarogQmLKO",
					"name": "Телепатия 60 футов"
				},
				{
					"id": "dGyUl4a5IhZvm1pZ",
					"name": "Кислота слизи ид",
					"description": "<p>Кислота слизи ид наносит урон только металлу и органическим материалам, но не камню.</p>"
				},
				{
					"id": "95JYmJT1NNzSvFzg",
					"name": "Манипуляция слизью",
					"description": "<p><strong>Частота:</strong> Раз в ход</p>\n<p><strong>Эффект:</strong> Слизь ид управляет восприятиями и побуждениями @Trait[Mindless]{неразумной} слизи своего уровня и ниже в радиусе 30 футов, отдавая ей телепатические приказы совершить определённое действие. Приказы должны быть простыми, например, приказ атаковать ту или иную цель, или защищать позицию, или даже изменить своё положение и тело, чтобы образовать грубые символы или фигуры. На следующий ход управляемая слизь выполняет приказ в меру своих возможностей, после чего возвращается к своему обычному поведению.</p>"
				},
				{
					"id": "iSpBpe5vgp2lVYWo",
					"name": "Чувствительность к движению 60 футов",
					"description": "<p>An id ooze can sense nearby creatures through vibration and air or water movement.</p>"
				},
				{
					"id": "2j5XlUWtOHYZQV9Z",
					"name": "Мутная западня",
					"description": "<p><strong>Триггер:</strong> Существо входит в пространство, занятое слизью ид, или взаимодействует с ней.</p>\n<p><strong>Требования:</strong> Инициатива ещё не была брошена.</p>\n<p><strong>Эффект:</strong> Слизь ид автоматически обнаруживает существо, затем совершает @UUID[Compendium.pf2e.actionspf2e.Item.VjxZFuUXrCU94MWR] ложноножкой по одному существу, находящемуся рядом с ней, и бросает инициативу.</p>"
				},
				{
					"id": "CgV0fKxkwv7Z5Qyd",
					"name": "Сжимать",
					"description": "<p>@Damage[(1d4+8)[bludgeoning],1d6[acid]], простой спасбросок @Check[fortitude|dc:25|basic]{Стойкости}</p>\n<hr />\n<p>@Localize[PF2E.NPC.Abilities.Glossary.Constrict]</p>"
				},
				{
					"id": "FRb0ZF950WAOeWup",
					"name": "Захват"
				}
			]
		},
		"Jekkajak": {
			"name": "Джеккаджак",
			"blurb": "Женщина, кобольд, чародей",
			"items": [
				{
					"id": "BvNE3B7HY4PorogV",
					"name": "Спонтанные сакральные заклинания"
				},
				{
					"id": "DvylTcBw7kkG6Bs4",
					"name": "Заклинания наследия крови чародея"
				},
								{
					"id": "WCUda5XvwBhqaRJq",
					"name": "Сердцерез"
				},
				{
					"id": "yKkkgO4Vj0Xe5cJ7",
					"name": "Дымное отступление",
					"description": "<p><strong>Частота:</strong> Раз в час</p>\n<p><strong>Требования:</strong> Джеккаджак находится рядом хотя бы с одним врагом.</p>\n<hr />\n<p><strong>Эффект:</strong> Джеккаджак испуганно визжит, выдыхая мерзкое облако вонючего дыма. Этот дым заполняет @Template[type:emanation|distance:10]{10-футовую эманацию} вокруг неё и даёт @UUID[Compendium.pf2e.conditionitems.Item.DmAIPqOBomZ7H95W]{сокрытие} всем существам, находящимся в пределах дыма. Кроме того, любой @Trait[Kobold]{не-кобольд}, начинающий свой ход в дыму, должен преуспеть в спасброске @Check[type:fortitude|dc:21]{Стойкости} или будет испытывать @UUID[Compendium.pf2e.conditionitems.Item.fesd1n5eVhpCSS18]{Тошноту 1} от вонючего дыма (@UUID[Compendium.pf2e.conditionitems.Item.fesd1n5eVhpCSS18]{Тошноту 2} при критическом провале). После создания облако дыма становится неподвижным и сохраняется в течение 3 раундов. Джеккаджак может передвинуться со Скоростью, равной своей, но она должна закончить перемещение в пространстве, не рядом с врагом. Это заклинание 2-го ранга, требующее жестового компонента.</p>"
				}
			]
		},
		"Kapmek": {
			"name": "Капмек",
			"blurb": "Мужчина, кобольд, дрессировщик сларков",
			"items": [
				{
					"id": "z2F8916L8WqdCaQf",
					"name": "Топорик"
				},
				{
					"id": "Tiz2OpO5FRJHDnn6",
					"name": "Топорик"
				},
				{
					"id": "EW3cRRCtKjnOrcht",
					"name": "Арбалет"
				},
				{
					"id": "WcJIPi6Aebysp5aG",
					"name": "Поспешное отступление",
					"description": "<p><strong>Требования:</strong> Капмек рядом с хотя бы 1 врагом.</p>\n<hr />\n<p><strong>Эффект:</strong> Капмек @UUID[Compendium.pf2e.actionspf2e.Bcxarzksqt9ezrs6]{Перемещается} вплоть до своей Скорости + 5 футов и получает бонус обстоятельства +2 к КБ против реакций провоцируемых этим передвижением. Он должен закончить это передвижение в пространстве находящемся не рядом с врагом.</p>"
				},
				{
					"id": "DnCHSsHyTLczsZIl",
					"name": "Быстро окунуть в яд",
					"description": "<p><strong>Триггер:</strong> Капмек заряжает свой арбалет, имея при себе дозу @Trait[Poison]{яда}.</p>\n<hr />\n<p><strong>Эффект:</strong> Когда он заряжает арбалет, Капмек может окунуть арбалетный болт в дозу переносимого яда как часть действия @UUID[Compendium.pf2e-jb2a-macros.Actions.Item.ZQE3zc1TGFnQTHdv]{Перезарядки} арбалета.</p>"
				},
				{
					"id": "XAQ7OUDmJMiw9JeW",
					"name": "Внезапная атака",
					"description": "<p>Капмек наносит дополнительно 1d6 точного урона @UUID[Compendium.pf2e.conditionitems.Item.AJh5ex99aV6VTggg]{Застигнутым врасплох} существам.</p>"
				}
			]
		},
		"Kerrdremak": {
			"name": "Керрдремак",
			"blurb": "Мужчина, кобольд, ведьма",
			"items": [
				{
					"id": "56S5Txf301HVYhYM",
					"name": "Подготовленные сакральные заклинания"
				},
				{
					"id": "jSBHs65NPAudCPU4",
					"name": "Чары сглаза"
				},
				{
					"id": "sB6AZ7CPD7ayOULU",
					"name": "Кинжал"
				},
				{
					"id": "cZ5dTEuo59FxzHYb",
					"name": "Шепчущее отступление",
					"description": "<p><strong>Требования:</strong> Керрдремак находится рядом с хотя бы одним врагом;</p>\n<p><strong>Эффект:</strong> Керрдремак бормочет себе под нос, и один соседний враг должен преуспеть в спасброске @Check[type:will|dc:17]{Воли} или будет @UUID[Compendium.pf2e.conditionitems.Item.TBSHQspnbcqxsmjL]{Напугано 1}, услышав позади себя шепчущий голос, утверждающий, что знает, когда цель умрет; цель получает временный иммунитет к \"Шепчущему отступлению\" на 1 час. Затем Керрдремак @UUID[Compendium.pf2e.actionspf2e.Item.Bcxarzksqt9ezrs6]{Перемещается}, и это @Trait[Move]{движение} не провоцирует реакции @Condition[Frightened]{напуганных} существ. Он должен закончить это передвижение в пространстве, которое не примыкает ни к одному врагу.</p>"
				}
			]
		},
		"Kieragan Skross": {
			"name": "Кираган Скросс",
			"blurb": "Великий ересьен",
			"hp": "исцеление пустотой",
			"items": [
				{
					"id": "XlyUD1rQeJbZLujq",
					"name": "Подготовленные сакральные заклинания"
				},
				{
					"id": "nM9SjJOoiVTF88iO",
					"name": "Заклинания домена жреца"
				},
				{
					"id": "eTOAfD5USioRft4m",
					"name": "Осквернённый религиозный символ Дроскара",
					"description": "<p>Этот кусок дерева или серебра гравирован изображением, представляющим божество. Некоторые сакральные заклинатели, такие как жрецы, могут использовать религиозный символ своего божества при использовании некоторых умений и сотворении некоторых заклинаний. Чтобы использовать религиозный символ, его надо держать в одной руке.</p>"
				},
				{
					"id": "mctdbJ6ODpRpV6RN",
					"name": "Лёгкий молот"
				},
				{
					"id": "eo1gES9alKhPDIgd",
					"name": "Лёгкий молот"
				},
				{
					"id": "4An3gyOTgzGgy78g",
					"name": "Окончательное богохульство",
					"description": "<p>Когда ересьен уничтожен, он взрывается волной энергии пустоты с эффектом заклинания @UUID[Compendium.pf2e.spells-srd.Item.wdA52JJnsuQWeyqz] 4-го ранга за 3 действия (простой спасбросок @Check[fortitude|dc:26|basic]{Стойкости}).</p>\n<p>Ересьен уничтожен, поэтому он не получает ОЗ от этого использования <em>нанесения ран</em>, и ему не нужно иметь оставшиеся заклинания <em>нанесения ран</em>, чтобы использовать эту способность.</p>"
				},
				{
					"id": "68fmkbjqFTg5bfi7",
					"name": "Исцеление пустотой"
				},
				{
					"id": "17ZgNO4BKYLVyYUD",
					"name": "Еретическое наказание",
					"description": "<p>При использовании предпочитаемого оружия своего бывшего божества (например кинжала, для бывшего фаразмита), \"Удары\" ересьена наносят дополнительные @Damage[2d6[spirit]] существам, способным сотворять сакральные заклинания.</p>"
				}
			]
		},
		"King Merlokrep": {
			"name": "Король Мерлокреп",
			"blurb": "Мужчина, король кобольдов",
			"skills": {
				"crafting": {
					"special": {
						"0": {
							"label": "для ловушек"
						}
					}
				}
			},
			"items": [
				{
					"id": "gdPgf1rGos471csi",
					"name": "Спонтанные арканные заклинания"
				},
				{
					"id": "iTf8yIz4QQZwimTp",
					"name": "Золотые браслеты на рога"
				},
				{
					"id": "aDsVkcCpD2TpbTj5",
					"name": "Золотое кольцо для губы"
				},
				{
					"id": "M5gNQmboCHC1YvhW",
					"name": "Красно-золотой бархатный плащ",
					"description": "<p>This oversized red and gold satin cloak has a crude painting of a gold dragon on the back.</p>"
				},
				{
					"id": "RhlvqLS4OwIiD4Og",
					"name": "Боевой топор"
				},
				{
					"id": "8YOU5O0qxqlZcslG",
					"name": "Царственное отступление",
					"description": "<p><strong>Требования:</strong> Король Мерлокреп находится рядом с хотя бы одним врагом</p>\n<hr />\n<p><strong>Эффект:</strong> Король Мерлокреп взмахивает своим роскошным плащом перед лицом соседнего существа и совершает попытку @Check[intimidation|against:will]{Запугивания} против КС Воли этого существа. При успехе существо растеряно и унижено этим поступком и будет @UUID[Compendium.pf2e.conditionitems.Item.AJh5ex99aV6VTggg]{Застигнуто врасплох} до конца следующего хода короля Мерлокрепа. Затем король Мерлокреп \"Перемещается\" вплоть до своей Скорости и получает бонус обстоятельства +2 к КБ против реакций, провоцируемых этим @Trait[Move]{движением}. Он должен закончить это движение в пространстве, не рядом с врагом.</p>"
				},
				{
					"id": "KXN0pWiNHPs86Zt8",
					"name": "Коронные заклинания",
					"description": "<p>Король Мерлокреп может свободно сотворять любые из своих коронных заклинаний (@UUID[Compendium.pf2e.spells-srd.Item.sxQZ6yqTn0czJxVd], @UUID[Compendium.pf2e.spells-srd.Item.9HpwDN4MYQJnW0LG] и @UUID[Compendium.pf2e.spells-srd.Item.gKKqvLohtrSJj3BM]) как усиленные версии.</p>"
				},
				{
					"id": "gUlLJDYDAuGsSgHW",
					"name": "Восстание из мёртвых",
					"description": "<p>Если король Мерлокреп будет убит, <em>Корона Короля кобольдов</em> засияет ужасным жёлтым сиянием; этот свет проникает внутрь плоти мёртвого кобольда и исходит изнутри, а его тело начинает дёргаться и извиваться. Если корону оставить на голове на 3 раунда, король Мерлокреп восстанет из мёртвых как Король кобольдов-нежить - это восстановит ему все ОХ и присвоит признак @Trait[Undead]{нежить} (вместе с исцелением пустотой и подверженностью к урона жизненностью). После победы над королем-нежитью он будет уничтожен - поглощённая энергия <em>Третьей печати</em> позволяет ему восстать из мёртвых только один раз. Если <em>Корона</em> снята до истечения 3 раундов, свет угаснет, а энергия, поглощённая <em>Третьей печатью</em>, безвредно рассеется.</p>"
				},
				{
					"id": "mWm3zHLghzTvmLLO",
					"name": "Внезапная атака",
					"description": "<p>Король Мерлокреп наносит доролнительно 1d6 точного урона @UUID[Compendium.pf2e.conditionitems.Item.AJh5ex99aV6VTggg]{Застигнутым врасплох} существам.</p>"
				},
				{
					"id": "GDkM7LI45g2jVpRj",
					"name": "Шахтерские знания"
				}
			]
		},
		"Lekmek": {
			"name": "Лекмек",
			"blurb": "Мужчина, кобольд, задира",
			"skills": {
				"crafting": {
					"special": {
						"0": {
							"label": "Ловушки"
						}
					}
				}
			},
			"items": [
				{
					"id": "6O1ozHoxImRiC55M",
					"name": "Двуручный клевец"
				},
				{
					"id": "qy7kctHiFIztywS0",
					"name": "Резкий приказ",
					"description": "<p><strong>Требования:</strong> Лекмек еще не совершал @UUID[Compendium.pf2e.actionspf2e.Item.VjxZFuUXrCU94MWR] в этом ходу.</p>\n<hr />\n<p><strong>Эффект:</strong> Лекмек рявкает команду кобольду более низкого уровня в радиусе 30 футов. Этот кобольд может немедленно совершить действие @UUID[Compendium.pf2e.actionspf2e.Item.Bcxarzksqt9ezrs6] или \"Удар\".</p>"
				},
				{
					"id": "vgRQsxXQrBQnYNCV",
					"name": "Ложное отступление",
					"description": "<p><strong>Требования:</strong> Лекмек находится рядом с хотя бы одним противником.</p>\n<hr />\n<p><strong>Эффект:</strong> Лекмек @UUID[Compendium.pf2e.actionspf2e.Item.Bcxarzksqt9ezrs6]{Перемещается}, как будто он намеревается убежать, но на самом деле это попытка провести противника и открыть его для атаки. Если \"Перемещение\" Лекмека спровоцирует реакцию, он может совершить @UUID[Compendium.pf2e.actionspf2e.Item.VjxZFuUXrCU94MWR]{Удар} двуручным клевцом (используя свой наивысший модификатор атаки) по существу, использующему эту реакцию. В этом случае Лекмек получает бонус обстоятельства +1 к броску атаки.</p>"
				},
				{
					"id": "IxUl0mQY0OGaa8CN",
					"name": "Шахтерские знания"
				}
			]
		},
		"Lodestone Trap": {
			"name": "Магнитная ловушка",
			"descriptionHazard": "<p>Магнит испускает снаряды электричества и притягивает весь металл в зале.</p>",
			"disable": "<p>@Check[thievery|dc:18]{Воровство} чтобы открепить нажимные плиты от ловушки, или @UUID[Compendium.pf2e.spells-srd.Item.9HpwDN4MYQJnW0LG] (2й ранг, КС Противодействия 18) чтобы противодействовать ловушке.</p>",
			"reset": "<p>Ловушка деактивируется по завершению раунда, в котором никто больше не стоит на полу и не прилеплен к магниту. Вагвилы возвращаются в свои ниши, двери за ними закрываются. Ловушка сбрасывается автоматически через 1 минуту.</p>",
			"routine": "<p>(1 действие) В свой ход, в порядке инициативы, ловушка активирует магнит, который с большой силой отталкивает и распахивает северную и западную дверь, если они были закрыты, и захлопывает южную и восточную, если они были открыты. Персонаж может открыть или закрыть дверь вопреки притяжению, успешно пройдя проверку @UUID[Compendium.pf2e.actionspf2e.Item.SjmKHgI7a5Z9JzBx]{Открыть силой} ([[/act force-open dc=18]]{КС 18}. В тоже время любой персонаж в зале, носящий преимущественно металлическую броню, должен совершить спасбросок @Check[type:reflex|dc:18]{Рефлекса} (персонаж в среднем металлическом доспехе получает штраф обстоятельства -1 к этой проверке, а персонаж носящий тяжёлый доспех получает штраф обстоятельства -2).</p>\n<hr />\n<p><strong>Критический успех:</strong> ИП невредим.</p>\n<p><strong>Успех:</strong> ИП сопротивляется притяжению, но пространство зала становится для него @UUID[Compendium.pf2e.journals.JournalEntry.S55aqwWIzpQRFhcq.JournalEntryPage.z68vgV2XWhi1KYEP#mestnostь]{Сложной местностью}</p>\n<p><strong>Провал:</strong> ИП воспринимает комнату как @UUID[Compendium.pf2e.journals.JournalEntry.S55aqwWIzpQRFhcq.JournalEntryPage.z68vgV2XWhi1KYEP#mestnostь]{Сложную местностью} и падает @UUID[Compendium.pf2e.conditionitems.Item.j91X7x0XSomq8d60]{Ничком}. Если ИП уже лежит @UUID[Compendium.pf2e.conditionitems.Item.j91X7x0XSomq8d60]{Ничком}, для него провал становится критическим провалом.</p>\n<p><strong>Критический провал:</strong> Как провал, но ИП также притягивается на 5 футов к магниту. Существо, находящееся рядом с магнитом, прилипает к нему и будет @UUID[Compendium.pf2e.conditionitems.Item.VcDeM8A5oI6VqhbM]{Сдерживаемо} до тех пор, пока ловушка продолжает действовать (@UUID[Compendium.pf2e.actionspf2e.Item.SkZAQRkLLkmBQNB9]{Вырваться} [[/act escape dc=18]]{КС 18})</p>",
			"hp": "ПП 15",
			"items": [
				{
					"id": "HOnVHGqqMyHncYZN",
					"name": "Электромагнитный импульс",
					"description": "<p><strong>Триггер:</strong> Одно Среднее или два или более Маленьких существа заканчивают свой ход в этой комнате.</p>\n<p><strong>Эффект:</strong> Импульс электричества вырывается из магнита, ударяя по всем четырём дверям, а дуги поменьше расходятся, поражая всех существ в комнате. Южная и восточная двери захлопываются, а северная и западная распахиваются, выпуская в комнату двух варгвилов. Все существа в комнате получают @Damage[2d6[electricity]] (простой спасбросок @Check[reflex|dc:18|basic]{Рефлекса}). Затем ловушка бросает инициативу.</p>"
				}
			]
		},
		"Loose Slab": {
			"name": "Покосившаяся плита",
			"descriptionHazard": "<p>Каменная плита вылетает из колеи с пронзительным лязгом ломающегося металла.</p>",
			"disable": "<p>@Check[crafting|dc:20]{Ремесло} (эксперт) закрепить плиту ровно, чтобы она функционировала как положено, или @Check[thievery|dc:18]{Воровство} (обучен) заклинить плиту, чтобы обездвижить её.</p>",
			"stealth": "<p>(обучен)</p>",
			"items": [
				{
					"id": "QKWI9AdyEovn1OFm",
					"name": "Падающая плита",
					"description": "<p><strong>Триггер:</strong> Существо пытается сдвинуть плиту;</p>\n<p><strong>Эффект:</strong> Плита срывается с направляющей и падает, обрушиваясь в одну сторону, а в другую выбрасывая закрученные металлические обломки. Все существа, находящиеся рядом с плитой, получают @Damage[3d6[bludgeoning],3d6[piercing]] (простой спасбросок @Check[reflex|dc:20|basic]{Рефлекса}).</p>"
				}
			]
		},
		"Narlynark": {
			"name": "Нарлинарк",
			"blurb": "Мужчина, кобольд-друид",
			"items": [
				{
					"id": "uysIhfRCEFgAi1d2",
					"name": "Подготовленные природные заклинания"
				},
				{
					"id": "u6I0KExYw7kZTyj3",
					"name": "Волшебная палочка Хватки геккона (Ранг 2)",
					"description": "<p>@UUID[Compendium.pf2e.spells-srd.Item.5KobTMrZeZxuXMgl]</p>\n<hr />\n<p>Этот жезл длиной около фута содержит одно заклинание. Внешний вид обычно связан с заклинанием внутри.</p>\n<hr />\n<p><strong>Активация:</strong> @UUID[Compendium.pf2e.actionspf2e.Item.aBQ8ajvEBByv45yz]</p>\n<p><strong>Частота:</strong> Раз в день, плюс перегрузка</p>\n<p><strong>Эффект:</strong> Вы @UUID[Compendium.pf2e.actionspf2e.Item.aBQ8ajvEBByv45yz]{Сотворяете заклинание} указанного ранга.</p>\n<hr />\n<p><strong>Требования для создания:</strong> Предоставить сотворение заклинания указанного ранга.</p>\n<hr />\n<p><em>Заметка: Чтобы создать свиток или палочку с определенным заклинанием, перетащите это заклинание из библиотеки в инвентарь игрового персонажа, персонажа мастера или лист добычи.</em></p>"
				},
				{
					"id": "WUczY8hfOf5BNw1A",
					"name": "Серп"
				},
				{
					"id": "CIcPRg8GDQD92sgq",
					"name": "Дикое отступление",
					"description": "<p><strong>Частота:</strong> Раз в час</p>\n<p><strong>Требования:</strong> Нарлинарк находится рядом хотя бы с одним врагом</p>\n<hr />\n<p><strong>Эффект:</strong> Нарлинарк в ужасе кричит, звук быстро переходящий от крика кобольда к пронзительному крику птицы. Из его спины вырастают пара пернатых крыльев, а ноги превращаются в птичьи когти. Когда он подпрыгивает в воздух, чтобы спаститесь бегством, он размахивает когтями - один стоящий рядом с Нарлинарком враг, по его выбору, получает @Damage[(3d6+6)[slashing]] (простой спасбросок @Check[reflex|dc:22|basic]{Рефлекса}). Затем Нарлинарк может \"Лететь\" вплоть до 35 футов. Он должен закончить своё движение в клетке, не примыкающей ни к одному из врагов, и если он не закончит своё движение на поверхности, то упадет, когда его крылья исчезнут, а ноги вернутся в нормальное состояние.</p>"
				}
			]
		},
		"Obscured Pitfalls": {
			"name": "Потайные ямы",
			"descriptionHazard": "<p>Слой бестелесных глаз скрывает яму в полу, которая либо достаточно глубока, чтобы в нее мог упасть человек, либо достаточно узка, чтобы вызвать болезненное падение.</p>",
			"disable": "<p>Эту опасность нельзя отключить, только избежать.</p>",
			"stealth": "<p>Либо КС 18, либо 0, если глаза, скрывающие яму, уничтожены.</p>",
			"items": [
				{
					"id": "dribA3NvUND91MoC",
					"name": "Падение в яму",
					"description": "<p><strong>Триггер:</strong> Существо заходит в квадрат большой ямы;</p>\n<p><strong>Эффект:</strong> Спровоцировавшее существо падает в яму, но может попытаться @UUID[Compendium.pf2e.actionspf2e.Item.3yoajuKjwHZ9ApUY]{Схватиться за уступ} ([[/act grab-an-edge dc=18]]{КС 18}), чтобы избежать падения. При провале существо падает на 20 футов в яму, заполненную глазами. Глаза амортизируют падение, поэтому падение с высоты 20 футов наносит только @Damage[5[bludgeoning]|options:fall-damage], но они также полностью затуманивают зрение; персонаж фактически будет @UUID[Compendium.pf2e.conditionitems.Item.XgEqL1kFApUbl5Z2]{Слеп} до тех пор, пока находится в яме. Стены ямы скользкие, но персонаж может @UUID[Compendium.pf2e.actionspf2e.Item.pprgrYQ1QnIDGZiy]{Карабкаться} на них ([[/act climb dc=25]]{КС 25})."
				},
				{
					"id": "GjTnh2euAcKlCNnN",
					"name": "Опрокидывание",
					"description": "<p><strong>Триггер:</strong> Существо входит в квадрат небольшой ямы;</p>\n<p><strong>Эффект:</strong> Спровоцировавшее существо должно преуспеть в спасброске @Check[type:reflex|dc:18]{Рефлекса} или упадет @UUID[Compendium.pf2e.conditionitems.Item.j91X7x0XSomq8d60]{Ничком} (@UUID[Compendium.pf2e.conditionitems.Item.i3OJZU2nk64Df3xm]{Неуклюже 1} до получения любого исцеления, при критическом провале, так как существо вывихнет лодыжку)</p>"
				}
			]
		},
		"Pendulum Blades": {
			"name": "Лезвия-маятники",
			"descriptionHazard": "<p>Из щелей в потолке появляются несколько раскачивающихся острейших маятников и рубят находящихся в комнате существ.</p>",
			"disable": "<p>@Check[thievery|dc:20]{Воровство} чтобы заклинить шестерни и не дать ловушке сработать.</p>",
			"stealth": "<p>(эксперт)</p>",
			"items": [
				{
					"id": "zgvRDTeyExHTuI47",
					"name": "Качающиеся лезвия",
					"description": "<p><strong>Триггер:</strong> Эта ловушка должна быть активирована вручную существом, находящимся рядом с юго-восточным комплектом шестерней;</p>\n<p><strong>Эффект:</strong> Лезвия вылетают на всех существ в зоне <strong>F2</strong>, а затем останавливаются у противоположной стены. Все существа в центральной части комнаты получают @Damage[(6d6+3)[slashing]] (простой спасбросок @Check[reflex|dc:20|basic]{Рефлекса}).</p>"
				}
			]
		},
		"Phantom Mold": {
			"name": "Призрачная плесень",
			"descriptionHazard": "<p>В воздух разлетается поток бледно-серых спор.</p>",
			"disable": "<p>@Check[survival|dc:18]{Выживание} для удаления плесени без активации спор.</p>",
			"stealth": "<p>(эксперт)</p>",
			"items": [
				{
					"id": "3pC1tMa7UTYrsGHc",
					"name": "Взрыв спор",
					"description": "<p><strong>Триггер:</strong> Кто-то двинул заплесневелые книги, или плесень получила урон.</p>\n<p><strong>Эффект:</strong> Все существа в радиусе 10 футов подвергаются воздействию \"Спор призрачной плесени\".</p>"
				},
				{
					"id": "GbqxC8zzsV5bYbbQ",
					"name": "Споры призрачной плесени",
					"description": "<p>Любые штрафы к Восприятию от этого @Trait[Poison]{яда} длятся 1 час после истечения длительности (можно снять этот штраф до его истечения любым эффектом, нейтрализующим @Trait[Poison]{яд});</p>\n<p><strong>Спасбросок:</strong> @Check[fortitude|dc:18|traits:poison]{Стойкость}</p>\n<p><strong>Макс.продолжительность:</strong> 4 раунда</p>\n<p><strong>Стадия 1:</strong> @Damage[1d6[poison]] (1 раунд)</p>\n<p><strong>Стадия 2:</strong> @Damage[1d6[poison]] урона, и жертва получает штраф состояния -1 для @Trait[Visual]{визуальных} проверок Восприятия, потому что в углах зрения мелькают странные тени и мерещится движение. (1 раунд)</p>\n<p><strong>Стадия 3:</strong> Как стадия 2, но штраф состояния увеличивается до -2. (1 раунд)</p>"
				}
			]
		},
		"Pit of Toil": {
			"name": "Каторжный карьер",
			"descriptionHazard": "<p>В то время как вокруг трудятся призрачные, источающие эктоплазму фигуры дварфов, тело живого существа в яме начинает испытывать боль от бессчетных часов непосильного труда.</p>",
			"disable": "<p>@Check[crafting|dc:21]{Ремесло} (эксперт) чтобы пристыдить яму, подражая искусным ремесленникам, или @Check[religion|dc:18]{Религия} (обучен) чтобы изгнать призрака.</p>",
			"routine": "<p>(1 действие; @Trait[Divine]{сакральный}) Пока дварфы продолжают напевать и хвататься за живых, карьер пропитывает находящихся в нем живых существ болью, испытываемой телом после долгих часов непрерывного труда. Каждое живое существо в каторжном карьере должно совершить спасбросок @Check[fortitude|dc:18|traits:divine|options:damaging-effect]{Стойкости}.</p>\n<hr />\n<p><strong>Критический успех:</strong> Существо невредимо и после этого иммуно к рутине каторжного карьера.</p>\n<p><strong>Успех:</strong> Существо невредимо.</p>\n<p><strong>Провал:</strong> Существо получает @Damage[2d6[void]] и будет @UUID[Compendium.pf2e.conditionitems.Item.MIRkyAjyBeXivMa7]{Ослаблено 1} на 1 раунд.</p>\n<p><strong>Критический провал:</strong> Существо получает @Damage[4d6[void]] и будет @UUID[Compendium.pf2e.conditionitems.Item.HL2l2VRSaQHu9lUw]{Утомлено}.</p>",
			"items": [
				{
					"id": "MkabEUHjU0jF7sU7",
					"name": "Призыв к труду",
					"description": "<p><strong>Триггер:</strong> Живое существо попадает в яму</p>\n<hr />\n<p><strong>Эффект:</strong> Окружающие дварфийские фигуры начинают петь на дварфийском, призывая новоприбывших присоединиться к ним, когда они хватаются за них своими холодными, бестелесными руками. Каторжный карьер бросает инициативу.</p>"
				}
			]
		},
		"Spike Thrower": {
			"name": "Шипомёт",
			"descriptionHazard": "<p>Щели в потолке открываются и испещряют комнаты длинными металлическими наконечниками, выпущенными из пружинных механизмов.</p>",
			"disable": "<p>@Check[thievery|dc:18]{Воровство} чтобы заклинить шестерни и предотвратить активацию ловушки.</p>",
			"stealth": "<p>(эксперт)</p>",
			"items": [
				{
					"id": "s4iRxoH38RlijaUg",
					"name": "Выброс шипов",
					"description": "<p><strong>Триггер:</strong> Эта ловушка должна быть активирована вручную существом, находящимся рядом с юго-западным комплектом шестерней;</p>\n<p><strong>Эффект:</strong> Шипомет совершает дистанционную атаку против каждого существа в центральной части зоны <strong>F2</strong>.</p>"
				},
				{
					"id": "pmBABxmIj7ku9GRx",
					"name": "Шип"
				}
			]
		},
		"Tallow Guardian": {
			"name": "Сальный страж",
			"description": "<p>Сальный страж обычно выглядит как смутно гуманоидная масса жира или воска, поверхность которой постоянно тает, стекает по телу, а затем затвердевает, чтобы снова впитаться в центральную массу. Лицо сального стража постоянно находится на грани того, чтобы растаять в бесформенную каплю, однако этот тревожный конструкт всё ещё может с легкостью ощущать окружающий мир.</p>",
			"items": [
				{
					"id": "HEzfExyxDp75t4pZ",
					"name": "Кулак"
				},
				{
					"id": "HQvuiZypU955kqul",
					"name": "Расплавленный воск",
					"description": "<p>Весь продолжительный урон огнём, наносимый сальным стражем, исходит от сгустков расплавленного горячего воска, которые липнут к противникам. Этот воск автоматически остывает через 4 раунда или сразу, если существо получает урон холодом; как только он остывает, продолжительный урон огнём заканчивается.</p>"
				},
				{
					"id": "tP6C0ChpaLwBIPMQ",
					"name": "Плавление",
					"description": "<p>Если сальный страж получает урон от огня, его тело немного плавится, его становится ещё сложнее повредить. До конца следующего хода его сопротивление режущему и колющему урону увеличивается до 10, и он получает сопротивление 5 к дробящему урону.</p>"
				},
				{
					"id": "SdUKvvpfqBBKLWCz",
					"name": "Замедляется холодом",
					"description": "<p>Если сальный страж получает урон холодом, он теряет преимущества, получаемые от \"Плавления\" и будет @UUID[Compendium.pf2e.conditionitems.Item.xYTAsEpcJE1Ccni3]{Замедлен 1}.</p>"
				},
				{
					"id": "0bb1r6n5xzUxDSz9",
					"name": "Поглотить",
					"description": "<p>Сальный страж пытается втянуть в своё тело @UUID[Compendium.pf2e.conditionitems.Item.kWc1fhmv9LBiTuei]{Схваченное} им существо Среднего размера или менее. Сальный страж совершает проверку @Check[type:athletics|against:reflex]{Атлетики}, против КС Рефлекса @Condition[Grabbed]{схваченного} существа, при успехе поглощая существо в свое тело. Поглощённое существо будет @Condition[Grabbed]{схвачено}, @UUID[Compendium.pf2e.conditionitems.Item.xYTAsEpcJE1Ccni3]{Замедлено 1} и должно задерживать дыхание, иначе начнет @UUID[Compendium.pf2e.journals.JournalEntry.S55aqwWIzpQRFhcq.JournalEntryPage.KdoLyU91c0oS2hTw#tonutь-i-zadyhatьsya]{Задыхаться}. Оно получает @Damage[2d6[fire]] от расплавленного горячего воска сального стража, когда впервые поглощено им, и в конце каждого своего хода, пока находится в нём.</p>\n<p>У сального стража может быть только одно поглощённое существо одновременно; если сальный страж заключает новое существо, ранее поглощённое существо выталкивается из его тела на соседнюю клетку по выбору существа.</p>\n<p>Поглощённое существо может освободиться, успешно пройдя проверку @UUID[Compendium.pf2e.actionspf2e.Item.SkZAQRkLLkmBQNB9]{Вырваться} [[/act escape dc=22]]{КС 22}. Поглощённое существо может атаковать сального стража, но только безоружными атаками или оружием легкой Массы или меньше. Сальный страж будет @UUID[Compendium.pf2e.conditionitems.Item.AJh5ex99aV6VTggg]{Застигнут врасплох} для этих атак. Если сальный страж получает 7 или более дробящего или режущего урона от заключенного в него существа, оно освобождается. Существо, освободившееся любым способом, может сразу же вздохнуть и покинуть пространство сального стража, но оно продолжает получать @Damage[1d6[persistent,fire]] от расплавленного воска, покрывающего его тело.</p>\n<p>Если сальный страж уничтожен, все заключенные в него существа автоматически освобождаются, поскольку тело стража превращается в бесформенную массу.</p>"
				}
			]
		},
		"The Disciples": {
			"name": "Последователи",
			"blurb": "Вариация невоскрешённого",
			"description": "<p>Невоскрешённый - это искореженный конгломерат из раздробленных костей, разлагающихся органов и гниющей плоти, созданный, когда такой ритуал, как воскрешение, проходит катастрофически неудачно. Необходимо соблюдать особую осторожность, ведь если ритуал окажется критически провален, результатом может стать невоскрешенный, о чем к своему ужасу узнали многие ритуалисты.</p>\n<p>Невоскрешённые почти не обладают разумом, они знают только о муках, которые постоянно причиняет им их несовершенное творение, и о своей неприязни к живым. Как правило, они сначала нападают на тех, кто участвовал в неудачном ритуале, а затем на всех окружающих. Хотя в искаженном облике невоскрешенного невозможно узнать цель воскрешения, его беззвучные завывания часто тревожно похожи на голос умершего. Если уничтожить невоскрешенного до того, как он сможет востать снова, он превращается в горстку металлических сине-зеленых солей, называемых солями эссенции.</p>",
			"language": "(не может говорить ни на одном языке)",
			"hp": "исцеление пустотой",
			"items": [
				{
					"id": "21j0rnxdp8gf5zsf",
					"name": "Челюсти"
				},
				{
					"id": "thmuyoj3asul9w8q",
					"name": "Коготь"
				},
				{
					"id": "0cQO5TZGYHxwoqee",
					"name": "Жизнечувствительность 30 футов"
				},
				{
					"id": "mlytlp3vwdiv4xev",
					"name": "Восстать вновь",
					"description": "<p>Если последователи снижены до 0 ОЗ чем-то кроме урона огнем, дезинтеграцией или уязвимостью к воскрешению, он возвращается к жизни в начале своего следующего хода. У него 45 ОЗ и он лежит @UUID[Compendium.pf2e.conditionitems.Item.j91X7x0XSomq8d60] в пространстве, в котором был уничтожен. После чего Последователи не может быть возвращены этой способностью в течение 1 часа.</p>"
				},
				{
					"id": "bywAbicCfjMxO2MY",
					"name": "Исцеление пустотой"
				},
				{
					"id": "csqmqowngauhnll2",
					"name": "Агонизирующий вой",
					"description": "<p>Невоскрешенный воет от боли за свое проклятое существование. Существа в @Template[emanation|distance:30]{30-футовой эманации} получают @Damage[6d8[mental]] (простой спасбросок @Check[will|dc:25|basic]{Воли}). Невоскрешенный не может снова использовать \"Агонизирующий вой\" [[/gmr 1d4 #Перезарядка Агонизирующий вой]]{1d4 раунда}.</p>"
				},
				{
					"id": "5q62z2h5hdchg2s2",
					"name": "Ужасное приближение",
					"description": "<p>Невоскрешенный меняет свою гротескную форму, чтобы двигаться быстро. Он дважды @UUID[Compendium.pf2e.actionspf2e.Item.Bcxarzksqt9ezrs6]{Перемещается}. Любое живое существо, которое может видеть невоскрешенного во время этого движения, должно совершить спасбросок @Check[fortitude|dc:28]{Стойкости} или будет испытывать @UUID[Compendium.pf2e.conditionitems.Item.fesd1n5eVhpCSS18]{Тошноту 1} (@UUID[Compendium.pf2e.conditionitems.Item.fesd1n5eVhpCSS18]{Тошноту 2} при критическом провале). Это @Trait[Visual]{визуальный} и @Trait[Mental]{ментальный} эффект. Невоскрешенный не может снова использовать \"Ужасное приближение\" [[/gmr 1d4 #Перезарядка Ужасное приближение]]{1d4 раунда}.</p>"
				}
			]
		},
		"The Last Crucible": {
			"name": "Последнее горнило",
			"descriptionHazard": "<p>Закалённые магией обсидиановые плиты закрывают выходы из комнаты, а механизмы, встроенные в нее, начинают заливать комнату лавой и исторгать из себя чудовищ.</p>",
			"disable": "<p>@Check[thievery|dc:28]{Воровство} (эксперт) чтобы вывести из строя главную нажимную плиту в зоне <strong>H4a</strong> и полностью деактивировать ловушку (при этом обсидиановые плиты также втягиваются в потолок), @Check[thievery|dc:25]{Воровство} (обучен) чтобы отключить один из трёх лавовых патрубков, или @Check[athletics|dc:28]{Атлетика} (обучен) чтобы @UUID[Compendium.pf2e.actionspf2e.Item.SjmKHgI7a5Z9JzBx]{Открыть силой} упавшую обсидиановую плиту</p>",
			"reset": "<p>Последнее горнило отключается и сбрасывается через 10 минут после того, как в нем не останется целей (потому что существа либо покинули зону <strong>H4c</strong> либо погибли) Все токквы, которые еще живы, чувствуют реку магмы в зоне <strong>H6</strong> и в конце концов добираются до этой зоны на север, чтобы вернуться к своему дрейфованию.</p>",
			"routine": "<p>(3 действия) Ловушка теряет 1 действие за каждый отключенный патрубок в каждый ход. При каждом действии разные патрубки, расположенные в одной из трёх зон, помеченных <strong>H4c</strong> извергают поток лавы на ближайшую, находящуюся в пределах видимости цель, не являющуюся токквой; эти патрубки используют магические датчики, обладающие ночным зрением и КС Восприятия равным 25. Изначально агенты настоятеля должны были приходить сюда после того, как ловушку провоцируют, деактивировать её и очищать от застывших сгустков лавы и оставшихся трупов, но то количество времени, которое потребуется этой ловушке, чтобы забить туннели остывающей лавой, делает отслеживание данного медленного процесса в течение этого приключения нецелесообразным</p>",
			"stealth": "<p>(эксперт)</p>",
			"hp": "ПП 29, чтобы пробить дыру в стене площадью 5 кв. футов; Носик ОЗ 20 (ПП 10)",
			"items": [
				{
					"id": "rMGaN3bbwCeGbh46",
					"name": "Опустить плиты",
					"description": "<p><strong>Триггер:</strong> Четыре Маленьких или более крупных существа выходят на нажимную плиту в зоне <strong>H4a</strong></p>\n<hr />\n<p><strong>Эффект:</strong> Магически упрочненные обсидиановые плиты закрывают западный и северный входы в эту комнату (зоны <strong>H3</strong> и <strong>H5</strong>, опускается вниз, словно опускная решетка. Любое существо, стоящее в одном из этих квадратов, получает @Damage[(4d6+4)[bludgeoning]] от падающей плиты (простой спасбросок @Check[reflex|dc:24|basic]{Рефлекса}) и затем выбирает, на какой стороне оно хочет оказаться. В тот же момент четыре токквы, проводившие столетия в спячке, пробуждаются и выходят из патрубков в зоне <strong>H4b</strong>. Ловушка и токквы бросают инициативу.</p>"
				},
				{
					"id": "Go6Fk0PxTtDr8fQA",
					"name": "Поток лавы",
					"description": "<p>Эта атака не имеет штрафа множественной атаки.</p>"
				}
			]
		},
		"Thoqqua": {
			"name": "Токква",
			"description": "<p>Токквы - злобные существа из огня и шлака. Их тела выделяют невероятное количество тепла, которое позволяет им рыть или плавить большинство поверхностей, даже твердые горные породы. Токквы обитают в бескрайних пепельных пустынях и лавовых полях Плана огня. Там они поглощают руду и минералы, которые их похожие на печи тела затем переплавляют в латные пластины, придающие существам их бронированные формы.</p>\n<p>Передний сегмент тела этих существ сужается в прямой, похожий на рог шип, светящийся обжигающим жаром. Из их суставов постоянно вырывается пар и дым, и издалека токквы могут быть ошибочно приняты за странные металлические конструкции. Взрослые токквы достигают 5 футов в длину и весят 200 фунтов.</p>\n<p>К токквам опасно приближаться - они нападают без раздумий, когда напуганы или разъярены. И если они сразу же не отгоняют вторгшихся на их территорию, то постепенно могут начать расценивать это место как собственность и даже охранять его. Мефиты, похоже, понимают этот любопытный ход мыслей токквы и иногда заключают сделки с магматическими червями. Мефиты утверждают, что горные предки современных токкв были слугами повелителей стихий и выкопали первые вулканы в молодых мирах Материального плана. Затем эти «черви-прародители» ушли в ядра миров, где их тепло согревает планеты и по сей день. Токквы на Материальном Плане действительно скапливаются вокруг вулканов - хотя является ли эта склонность причиной защиты богатых минералами мест или священной территории, или просто из соображений комфорта, зависит от конкретного токквы.</p>",
			"language": "(не может говорить ни на одном языке)",
			"skills": {
				"stealth": {
					"special": {
						"0": {
							"label": "в лаве"
						}
					}
				}
			},
			"items": [
				{
					"id": "49PuzTrEloH33qWN",
					"name": "Клюв"
				},
				{
					"id": "IjipnghcR1hpkdTJ",
					"name": "Расплавленное тело",
					"description": "<p>Тело токквы достаточно горячее, чтобы расплавить камень. Существо, которое захватывает токкву, было @UUID[Compendium.pf2e.conditionitems.Item.kWc1fhmv9LBiTuei]{Схвачено} токквой, или критически проваливает атаку ближнего боя безоружным или @Trait[Agile]{быстрым} оружием, получает @Damage[1d4[fire]] (простой спасбросок @Check[reflex|dc:15|basic]{Рефлекса}).</p>"
				},
				{
					"id": "dCYLifyyGXBVIqsH",
					"name": "Реагирующий бросок",
					"description": "<p><strong>Триггер:</strong> Существо, находящееся в зоне досягаемости токквы, попадает по ней \"Ударом\" ближнего боя.</p>\n<p><strong>Эффект:</strong> Токква инстинктивно бросается в атаку, прижимая к себе расплавленную горячую чешую. Атакующий должен совершить спасбросок @Check[reflex|dc:15]{Рефлекса}.</p>\n<hr />\n<p><strong>Критический успех:</strong> Атакующий невредим.</p>\n<p><strong>Успех:</strong> Атакующий получает @Damage[1d4[fire]].</p>\n<p><strong>Провал:</strong> Атакующий получает @Damage[2d4[fire]].</p>\n<p><strong>Критический провал:</strong> Как провал, но оружие, используемое для удара по токкве, ломается, если только оно не сделано из металла, не имеет Твёрдость более 10 или не устойчиво к огню или невосприимчиво к нему.</p>"
				},
				{
					"id": "9iQozfwhtbNEu8xk",
					"name": "Критическое воспламенение",
					"description": "<p>При критическом попадании \"Ударом\" шипа токква наносит дополнительные @Damage[1d6[persistent,fire]].</p>"
				},
				{
					"id": "0CUb4PmdjlimqtBK",
					"name": "Голодание",
					"description": "<p>Токква питается сырым камнем, рудой и теплом. Лишившись этих элементов пропитания, токква не погибнет от голода, но станет менее защищенным, поскольку будет вынужден поглощать и ослаблять свои бронированные пластины. КБ голодающего токквы снижается на 2, но получает бонус обстоятельства +1 ко всем броскам атаки.</p>"
				}
			]
		},
		"Toxic Furnace": {
			"name": "Токсичный горн",
			"descriptionHazard": "<p>Дымящаяся печь начинает шипеть и трещать, а её дымоходы шатаются, раздуваются и выбрасывают ядовитые испарения в сторону незваных гостей.</p>",
			"disable": "<p>@Check[thievery|dc:25]{Воровство} (обучен) чтобы вывести из строя один из дымоходов, или @Check[athletics|dc:25]{Атлетика} чтобы выкрутить и изогнуть дымоход, до тех пор, пока он не перестанет функционировать.</p>",
			"reset": "<p>Ловушка сбрасывается через 1 минуту, в течение которой в её поле зрения не оказывается ни одного существа.</p>",
			"routine": "<p>(3 действия) Ловушка теряет 1 действие за каждый отключённый дымоход. В каждое из действий ловушки отверстие извергает струю кипящего токсина на живое существо, находящееся в поле её зрения. Одно существо не может быть атаковано более одного раза в раунд, поэтому, если на все 3 действия не хватает подходящих целей, ловушка теряет эти неизрасходованные действия.</p>",
			"stealth": "<p>(эксперт)</p>",
			"hp": "Печь - ПП 28, Дымоход - Твёрдость 10, ОЗ 18 (ПП 9)",
			"items": [
				{
					"id": "5cVXZomdIKW8IUEF",
					"name": "Выброс токсинов",
					"description": "<p><strong>Триггер:</strong> В помещение входит видимое живое существо, или скрывающееся существо проваливает проверку @Check[type:stealth|dc:25]{Скрытности}, чтобы остаться @UUID[Compendium.pf2e.conditionitems.Item.iU0fEDdBp3rXpTMC]{Спрятанным} от токсичного горна (датчики ловушки обладают ночным зрением и жизнечувствительностью);</p>\n<p><strong>Эффект:</strong> Один из дымоходов токсичного горна поворачивается, чтобы нацелиться на существо, которое провоцирует ловушку, и извергает в цель струю кипящего токсина. Затем токсичный горн бросает инициативу.</p>"
				},
				{
					"id": "O4lMLz9DR4DwR9Uy",
					"name": "Кипящие токсины"
				}
			]
		},
		"Trapped Elevator": {
			"name": "Подъемник с ловушкой",
			"descriptionHazard": "<p>В случае перевеса огромный котёл подъемник обрушивается с высоты 30 футов.</p>",
			"disable": "<p>@Check[thievery|dc:18]{Воровство} (обучен) чтобы отключить механизм сброса котла, или @Check[crafting|dc:20]{Ремесло} тобы прикрепить к котлу дополнительные веревки (на эту активность уходит 10 минут работы)</p>",
			"reset": "<p>Существа могут спуститься в шахту даже после падения котла, но для сброса его необходимо заново подвесить.</p>",
			"stealth": "<p>(эксперт)</p>",
			"items": [
				{
					"id": "lnhw75czavOzr9u0",
					"name": "Сброс котла",
					"description": "<p><strong>Триггер:</strong> Более одного Среднего или более двух Маленьких существ находятся внутри котла, когда котёл пытаются опустить;</p>\n<p><strong>Эффект:</strong> Котел срывается с креплений и падает на 30 футов в зону <strong>E1</strong>; все существа внутри получают @Damage[15[bludgeoning]] от падения. Существо может совершить @UUID[Compendium.pf2e.actionspf2e.Item.3yoajuKjwHZ9ApUY]{Схватиться за уступ}, чтобы избежать крушения, зацепившись за цепь.</p>"
				}
			]
		},
		"Ulizmila's Cauldron": {
			"name": "Котёл Улизмилы",
			"description": "<p>Хотя Улизмилы давно нет, её оживлённый котёл остается опасным стражем хижины. Бездумный конструкт оживает и нападает на любого, кто осмеливается войти, преследуя незваных гостей до самого края поляны, прежде чем вернуться на свое место внутри хижины. Когда котел атакует, он \"кусает\" врагов, щелкая на них своей откидной крышкой, в то время как его внутренности быстро нагреваются, чтобы приготовить все Маленькое, что он может \"проглотить\".</p>\n<hr />\n<p>Придав подобие жизни с помощью ритуалов или другой странной магии, одушевленные объекты принимают множество форм и служат различным целям. Ниже перечислены несколько примеров типичных одушевленных объектов. Многие из этих существ служат стражами, удивляя ничего не подозревающих авантюристов, когда они внезапно нападают. Другие служат праздным отвлечением для исключительно богатых, простых слуг, созданных для выполнения случайных работ и тому подобного.</p>",
			"ac": "(13 когда сломан); броня конструкта",
			"items": [
				{
					"id": "0XydXCehPsY2yGto",
					"name": "Крышка"
				},
				{
					"id": "3SNH7v25J8TbPWvC",
					"name": "Броня конструкта (Твёрдость 9)",
					"description": "<p>Как обычные объекты, оживший объект имеет Твёрдость. Эта Твердость снижает любой получаемый урон на величину этой Твердости. Как только ОЗ ожившего объекта снижаются ниже половины, или сразу после получения урона от критического попадания, его броня конструкта ломается, снимая Твердость, и КБ снижается до 13.</p>"
				},
				{
					"id": "pqajD7b890ayQvRP",
					"name": "Проглотить целиком",
					"description": "<p>Маленький, @Damage[2d6[fire]], Разрыв 3</p>\n<hr />\n<p>@Localize[PF2E.NPC.Abilities.Glossary.SwallowWhole]</p>"
				},
				{
					"id": "6joi3emPh0w6T9ee",
					"name": "Захват"
				}
			]
		},
		"Unsafe Stairs": {
			"name": "Ненадёжные ступени",
			"descriptionHazard": "<p>Стоит лишь существу Маленького размера или более начать подниматься по ступеням, они начнут протяжно скрипеть, предвещая что-то нехорошее.</p>",
			"disable": "<p>@Check[crafting|dc:16]{Ремесло} - на скорую руку укрепить лестницу и не дать ей обвалиться.</p>",
			"items": [
				{
					"id": "tiz0XZaOiLoOihIH",
					"name": "Обрушение",
					"description": "<p><strong>Триггер:</strong> Существо Маленького размера или более пытается подняться по ступеням.</p>\n<p><strong>Эффект:</strong> Лестница должна совершить @Check[flat|dc:8]{Чистую проверку} (если Маленькое существо спровоцировало опасность) или @Check[flat|dc:16]{Чистую проверку} (если Среднее или несколько Маленьких существ спровоцировало её). При провале, ступени обрушаются. Все существа на лестнице падают и получают @Damage[(2d6+3)[bludgeoning]] от обломков (простой спасбросок @Check[reflex|dc:16|basic]{Рефлекса}).</p>"
				}
			]
		},
		"Vargouille": {
			"name": "Варгвил",
			"description": "<p>Варгвилы — падальщики из болот Абаддона, где они летают и хлопают крыльями по странным и призрачным небесам в постоянном поиске свежих душ для мучений. В этом демоническом кошмарном мире варгульи играют роль, похожую на роль ворона или стервятника, хотя они дополняют эти роли злобным удовольствием, причиняя боль и страдания, с которыми ни одна птица-падальщик не может и надеяться сравниться. Варгвилы больше человеческой головы, обычно от 12 до 20 дюймов в высоту с размахом крыльев от 15 до 35 дюймов. Хотя варгульи не являются уроженцами Материального плана, их, тем не менее, можно встретить там, занимая кладбища, древние поля сражений или любые места, где можно найти остатки смерти и разложения.</p>",
			"items": [
				{
					"id": "bqixPFIcaTqLdZ7k",
					"name": "Укус"
				},
				{
					"id": "15JJzBZFMp6GVUwb",
					"name": "Тяжёлые раны",
					"description": "<p>Существо, получившее урон от яда варгвила, должно преуспеть в спасброске @Check[fortitude|dc:18]{Стойкости} или будет проклято. Проклятое существо не может восстановить ОЗ, кроме как с помощью магии, и любое сотворенное на это существо заклинания @Trait[Healing]{исцеления} должно преуспеть в проверке @UUID[Compendium.pf2e.journals.JournalEntry.S55aqwWIzpQRFhcq.JournalEntryPage.E4Q7EiSG18sIvFwg]{Противодействия} КС 18, иначе исцеление не будет иметь эффекта. Ранг противодействия варгвила равен его уровню. Существо может совершить новый спасбросок @Check[fortitude|dc:18]{Стойкости} раз в день (обычно во время ежедневных приготовлений) чтобы снять это проклятие. Проклятие заканчивается автоматически, если существо исцеляет свое ОЗ до максимального значения.</p>"
				},
				{
					"id": "qxqYcFMkTWTRqN62",
					"name": "Поцелуй варгвила",
					"description": "<p><strong>Требования:</strong> Варгвил находится рядом с @UUID[Compendium.pf2e.conditionitems.Item.fBnFDH2MTzgFijKf]{Безсознательным} @UUID[Compendium.pf2e.conditionitems.Item.6uEgoh53GbXuHpTF]{Парализованным} или готовым существом-@Trait[Humanoid]{гуманоидом}</p>\n<p><strong>Эффект:</strong> Варгвил прижимается к беспомощному или согласному гуманоидному существу в пародии на поцелуй влюбленного, после чего существо должно совершить спасбросок или начать жуткое превращение в варгвила. Состояния @Condition[Sickened]{тошноты}, @Condition[Stupefied]{одурманен} и @Condition[Unconscious]{без сознания}, вызванные \"Поцелуем варгвила\", не проходят сами по себе до тех пор, пока болезнь не будет излечена. Стадия болезни не прогрессирует пока жертва находится под солнечным светом или в области действия эффекта @Trait[Light]{света} 3-го ранга или выше.</p>\n<p><strong>Спасбросок:</strong> @Check[fortitude|dc:18]{Стойкость}</p>\n<p><strong>Стадия 1:</strong> Без видимых эффектов (2 часа)</p>\n<p><strong>Стадия 2:</strong> У жертвы выпадают волосы и оно испытывает @UUID[Compendium.pf2e.conditionitems.Item.fesd1n5eVhpCSS18]{Тошноту 1} (2 часа)</p>\n<p><strong>Стадия 3:</strong> Уши жертвы удлиняются до крылоподобных форм, а зубы становятся острыми и оно @UUID[Compendium.pf2e.conditionitems.Item.e1XGnhKNSQIm5IXg]{Одурманено 1} (2 часа)</p>\n<p><strong>Стадия 4:</strong> Как Стадия 3, но жертва падает @UUID[Compendium.pf2e.conditionitems.Item.fBnFDH2MTzgFijKf]{Без сознания} (2 часа)</p>\n<p><strong>Стадия 5:</strong> Смерть, голова жертвы превращается в нового варгвила, который отделяется от тела и улетает, чтобы самостоятельно учинять зло.</p>"
				},
				{
					"id": "3Sr9g2tgDUZ4KkF5",
					"name": "Визг варгвила",
					"description": "<p>Варгвил ужасно разевает пасть и издаёт тревожный крик. Все существа в радиусе 60 футов, видящие и слышащие варгвила, должны совершить спасбросок @Check[type:fortitude|dc:15]{Стойкости}.</p>\n<p><strong>Успех:</strong> Существо невредимо и временно иммуно к крику варгвила на 24 часа.</p>\n<p><strong>Провал:</strong> Существо @UUID[Compendium.pf2e.conditionitems.Item.6uEgoh53GbXuHpTF]{Парализовано} до конца своего следующего хода.</p>\n<p><strong>Критический провал:</strong> Существо @UUID[Compendium.pf2e.conditionitems.Item.6uEgoh53GbXuHpTF]{парализовано}. Оно может совершить новый спасбросок в конце каждого своего хода, и КС в совокупности уменьшается на 1 при каждом таком спасброске.</p>"
				}
			]
		},
		"Ygrik": {
			"name": "Игрик",
			"blurb": "Мужчина, кобольд, тюремщик",
			"skills": {
				"crafting": {
					"special": {
						"0": {
							"label": "для ловушек"
						}
					}
				}
			},
			"items": [
				{
					"id": "aaHH7VWzbOBiaEoB",
					"name": "Ключи",
					"gm": "<p>К клеткам заключённых</p>"
				},
				{
					"id": "KbRqOltAvvC8OuSC",
					"name": "Летающий коготь"
				},
				{
					"id": "6770iqeta6tslJ0i",
					"name": "Летающий коготь"
				},
				{
					"id": "W9J1B5Ft5qDt5mM3",
					"name": "Запугивающее отступление",
				"description": "<p><strong>Требования:</strong> Игрик находится рядом как минимум с одним врагом и как минимум с одним союзником;</p>\n<p><strong>Эффект:</strong> Игрик приказывает союзнику, находящемуся рядом, сражаться усерднее и угрожает суровым наказанием, если тот не подчинится; союзник получает бонус обстоятельства +1 к следующему броску атаки ближнего боя, при условии, что атака будет совершена до начала следующего хода Игрика. Затем Игрик @UUID[Compendium.pf2e.actionspf2e.Item.Bcxarzksqt9ezrs6]{Перемещается} вплоть до своей Скорости и получает бонус обстоятельств +2 к КБ против реакций, которые провоцирует это @Trait[Move}{движение}. Он должен закончить это перемещение в пространстве, которое не примыкает ни к одному врагу.</p>"
				},
				{
					"id": "6NKiRK6X20AbOH8W",
					"name": "Внезапная атака",
					"description": "<p>Игрик наносит дополнительно 1d6 точного урона @UUID[Compendium.pf2e.conditionitems.Item.AJh5ex99aV6VTggg] существам.</p>"
				}
			]
		}
	}
}