{
	"label": "LO: Travel Guide",
	"mapping": {
		"name": {
			"path": "name",
			"converter": "actorNameConverter"
		},
		"items": {
			"path": "items",
			"converter": "actorItemCollectionConverter"
		},
		"description": "system.details.publicNotes",
		"descriptionGM": "system.details.privateNotes",
		"language": "system.traits.languages.custom",
		"senses": "system.perception.details",
		"disable": "system.details.disable",
		"reset": "system.details.reset",
		"routine": "system.details.routine",
		"hp": "system.attributes.hp.details",
		"di": "system.traits.di.custom",
		"stealth": "system.attributes.stealth.details",
		"ac": "system.attributes.ac.details",
		"allSaves": "system.attributes.allSaves.value",
		"speed": "system.attributes.speed.details"
	},
	"entries": {
		"Baccali Alpaca": {
			"name": "Baccali Alpaca",
			"description": "<p>A Druman breed of alpaca, the baccali alpaca is prized for its exceptionally soft wool.</p>"
		},
		"Irriseni Owlbear": {
			"name": "Irriseni Owlbear",
			"description": "<p>A cultural symbol for Irrisen, the Irriseni owlbear is particularly well adapted to frosty conditions. These owlbears are larger than their temperate zone counterparts.</p>\n<hr />\n<p>With the body of a powerful brown bear and the keen senses of an owl, the owlbear is a dangerous territorial predator, fearlessly attacking any creature that strays into its domain. Those who run afoul of an owlbear hear its terrifying screech only seconds before the massive creature is upon them, ripping them apart with deadly talons and a powerful beak.</p>\n<p>Although their origin is lost to time, owlbears are assumed to be the result of a magical experiment to make a more cunning predator. According to the legend, the wizard was too successful and ended up being the flrst victim of the beast. Today, owlbears can be found around the world, with a variety of features. While the most common subspecies looks like a brown bear with the features of a great horned owl, owlbears from the frozen north might resemble polar bears mixed with snowy owls, and in temperate rain forests they might resemble black bears with the heads of barn owls.</p>\n<p>Most owlbears live solitary lives, gathering only to mate and raise cubs, which are hatched from eggs. An owlbear's territory usually extends to around 5 miles from its lair, with clear signs of its habitat appearing with 1 mile (clawed up trees, gigantic feathers, and shredded carcasses). The lair of an owlbear rarely holds anything of value, but some adventurers have found trinkets, coins, and even jewelry in the massive pellets of undigested bones these monsters leave behind.</p>"
		},
		"Sarkorian Wolf": {
			"name": "Sarkorian Wolf",
			"description": "<p>To survive living in the Worldwound, Sarkorian wolves developed defenses against the Abyss. They've become symbols for Mendevian crusaders who struggled to adapt to the world after the war ended.</p>\n<hr />\n<p>Wolves roam forests, hills, and other wild lands, where they hunt in packs to beleaguer and surround their prey before going in for the kill. Like most predatory animals, wolves prefer to attack the weakest or most vulnerable prey they can find.</p>"
		},
		"Vulture Rat": {
			"name": "Vulture Rat",
			"description": "<p>These scavenger rats live in Geb, where they feast on the remains of the undead. They're adapted to going long periods without sustenance but viciously attack any possible food source.</p>\n<hr />\n<p>Giant rats are enormous versions of the common vermin. They are typically found in abundant numbers, but since they cannot fit in the nooks where mundane rats typically hide, they are much easier to locate and exterminate. They mostly live in sewers where they can scavenge from the streets above, but some families of giant rats live in more remote locations, such as dank caves or forests and hills. Rats are incredibly adept survivors and can be found nearly anywhere in the world, though they tend to favor temperate or warm climates as opposed to cold regions.</p>\n<p>Although its bite alone is not lethal except to the very young or very old, the giant rat carries the filth fever common to rodents around the world-a pestilence more than capable of ravaging rural communities.</p>"
		},
		"Whalesteed": {
			"name": "Whalesteed",
			"description": "<p>Whalesteeds were first tamed in the Shackles as part of an ambush between rival pirate captains. Whalesteed riders are still an unusual sight, as learning to master the skill takes years of training.</p>",
			"senses": "aquatic echolocation 120 feet"
		}
	}
}