{
    "RPGUI.SETTINGS.DORAKOUI": "Вы активировали Pathfinder UI v3 и Dorako UI одновременно. Оба являются графическими интерфейсами и не могут работать одновременно, поскольку конфликтуют друг с другом. Пожалуйста, отключите один из них.",
    "RPGUI.SETTINGS.DARKWINDOWS": "Тёмный цвет окон",
    "RPGUI.SETTINGS.DARKWINDOWS_HINT": "Включает тёмные окна для большинства окон интерфейса кроме связанных с настройками выше.",
    "RPGUI.SETTINGS.DARKSHEET": "Выберите свой цвет листа",
    "RPGUI.SETTINGS.DARKSHEET_HINT": "Только для листов игроков.",
    "RPGUI.SETTINGS.DARKPARTYSHEET": "Цвет листа партии",
    "RPGUI.SETTINGS.DARKPARTYSHEET_HINT": "Выберите исходный или тёмный лист.",
    "RPGUI.SETTINGS.DARKLOOTSHEET": "Цвет листа добычи",
    "RPGUI.SETTINGS.DARKLOOTSHEET_HINT": "Выберите исходный или тёмный лист.",
    "RPGUI.SETTINGS.DARKNPCSHEET": "Цвет листа персонажа мастера",
    "RPGUI.SETTINGS.DARKNPCSHEET_HINT": "Выберите исходный или тёмный лист.",
    "RPGUI.SETTINGS.DARKHAZARDSHEET": "Цвет листа опасности",
    "RPGUI.SETTINGS.DARKHAZARDSHEET_HINT": "Выберите исходный или тёмный лист.",
    "RPGUI.SETTINGS.DARKKINGDOMSHEET": "Цвет листа королевства",
    "RPGUI.SETTINGS.DARKKINGDOMSHEET_HINT": "Выберите исходный или тёмный лист.",
    "RPGUI.SETTINGS.DARKJOURNAL": "Выберите ваш лист журнала",
    "RPGUI.SETTINGS.DARKJOURNAL_HINT": "Выберите исходный, особый или особый тёмный лист.",
    "RPGUI.SETTINGS.TOKEN_EFFECT_HUD": "Настроить эффекты HUD токена?",
    "RPGUI.SETTINGS.TOKEN_EFFECT_HUD_HINT": "Делает эффекты круглыми и располагает их снаружи токена или на кольце токена для больших токенов",
    "RPGUI.SETTINGS.TOKEN_HUD": "Отключить тёмный PF2e Interactive Token Tooltip?",
    "RPGUI.SETTINGS.TOKEN_HUD_HINT": "Отключает тёмную тему PF2e Interactive Token Tooltip и восстанавливает стандартную",
    "RPGUI.SETTINGS.PF2E_HUD": "Отключить тему PF2e HUD?",
    "RPGUI.SETTINGS.PF2E_HUD_HINT": "Отключает тему PF2e HUD и восстанавливает стандартную",
    "RPGUI.SETTINGS.SIMPLY_PORTRAITS": "Размер портрета (пиксели)",
    "RPGUI.SETTINGS.SIMPLY_PORTRAITS_HINT": "Ширина и высота портретов в чате, в пикселях (установите 0 чтобы скрыть портреты)",
    "RPGUI.SETTINGS.NAVIGATION": "Переключает меню навигации обратно в горизонтальный режим",
    "RPGUI.SETTINGS.NAVIGATION_HINT": "Используйте этот переключатель если вы не используете интеграцию с Combat Carousel",
    "RPGUI.SETTINGS.COMPACT_MODE": "Компактный режим",
    "RPGUI.SETTINGS.COMPACT_MODE_HINT": "Уменьшает размер левого меню и убирает логотип",
    "RPGUI.SETTINGS.STANDARD_LOGO": "Стандартный логотип",
    "RPGUI.SETTINGS.STANDARD_LOGO_HINT": "Возвращает обратно стандартный логотип вместо текстового",
    "RPGUI.SETTINGS.JOURNAL_SHEET": "Отключает текстуру пергамента на страницах журналов",
    "RPGUI.SETTINGS.JOURNAL_SHEET_HINT": "Отключает эффект пергамента в журналах (Этот эффект присутствует только на исходных листах журналов)",
    "RPGUI.SETTINGS.JOURNAL_CURSOR": "Отключает RPG курсоры.",
    "RPGUI.SETTINGS.JOURNAL_CURSOR_HINT": "Отключаете стиль RPG курсора в интерфейсе.",
    "RPGUI.SETTINGS.MINIMAL_UI": "Поддержка Minimal UI",
    "RPGUI.SETTINGS.MINIMAL_UI_HINT": "Исправляет некоторые (не все) проблемы с Minimal UI",
    "RPGUI.SETTINGS.DISABLE_STYLES": "Отключает Pathfinder UI",
    "RPGUI.SETTINGS.DISABLE_STYLES_HINT": "Это клиентская настройка, которая позволяет игроку отключить стили",
    "RPGUI.SETTINGS.AUTO_COLLAPSE_SCENE_NAVIGATION_TEXT": "Автоматически скрывать сцену в панели навигации",
    "RPGUI.SETTINGS.AUTO_COLLAPSE_SCENE_NAVIGATION_TEXT_HINT": "(Клиент) Панель навигации будет скрыта по умолчанию",
    "RPGUI.SETTINGS.EnableTitle": "Кнопки бросков: Заменить выбор типа броска на кнопки",
    "RPGUI.SETTINGS.EnableHint": "Заменить выпадающее меню выбора типа броска на 4 кнопки.",
    "RPGUI.SETTINGS.ReplaceButtonsTitle": "Кнопки бросков: Использовать стиль кнопок на все кнопки чата",
    "RPGUI.SETTINGS.ReplaceButtonsHint": "Сменить стиль других кнопок чата на стиль новых кнопок броска.",
    "RPGUI.SETTINGS.OPEN_SHEET_ON_CHAT_CLICK_TEXT": "Открывать лист, когда нажато имя в чате",
    "RPGUI.SETTINGS.OPEN_SHEET_ON_CHAT_CLICK_TEXT_HINT": "(Клиент) Открывать лист актёра по нажатии на его имя в чате",
    "RPGUI.SETTINGS.EnableAllianceViewerTitle": "Показывать альянс актёра в боковой панели",
    "RPGUI.SETTINGS.EnableAllianceViewerHint": "Показывать цветную точку, которая позволяет легко отслеживать, к какому альянсу принадлежит актёр",
    "PAUSEICON.path_name": "Путь к значку паузы в каталоге данных: ",
    "PAUSEICON.path_hint": "Папка и имя файла, где хранится ваша альтернативный значок паузы в каталоге данных Foundry VTT. Нажмите на кнопку выбора, чтобы выбрать ваш значок. Наберите 'None', чтобы убрать изображение.",
    "PAUSEICON.opacity_name": "Непрозрачность %:",
    "PAUSEICON.opacity_hint": "Значение между 0 и 100, чем меньше — тем прозрачнее",
    "PAUSEICON.text_name": "Сообщение паузы: ",
    "PAUSEICON.text_hint": "Сообщение, которое появляется, когда игра на паузе.",
    "PAUSEICON.speed_name": "Скорость: ",
    "PAUSEICON.speed_hint": "Скорость вращения сек/оборот. '0' отключает вращение.",
    "PAUSEICON.dimensionX_name": "Размер (ширина): ",
    "PAUSEICON.dimensionX_hint": "Ширина значка в пикселях.",
    "PAUSEICON.dimensionY_name": "Размер (высота): ",
    "PAUSEICON.dimensionY_hint": "Высота значка в пикселях.",
    "PAUSEICON.fontSize_name": "Размер шрифта:",
    "PAUSEICON.fontSize_hint": "Размер шрифта в эм. По умолчанию 2",
    "PAUSEICON.shadow_name": "Оттенение: ",
    "PAUSEICON.shadow_hint": "Добавлять ли оттенение под текстом.",
    "PAUSEICON.textColor_name": "Цвет: ",
    "PAUSEICON.textColor_hint": "Шестнадцатеричный код (например, #EEEEEE) или HTML название цвета (CornflowerBlue)",
    "PAUSEICON.saveButton": "Сохранить настройки",
    "PAUSEICON.settings": "Настройки: ",
    "PAUSEICON.settingsButton": "Подменю настроек"
}