{
    "pf2e-dailies": {
        "SHARED": {
            "migration": {
                "warning": {
                    "title": "Миграция модуля",
                    "start": "Начало миграции",
                    "cancel": "Отменить",
                    "content": {
                        "modules": "Следующим модулям может потребоваться миграция данных:",
                        "wait": "Если система осуществляет миграцию своих данных, пожалуйста, подождите прежде чем начать"
                    }
                },
                "summary": {
                    "title": "Сводка миграции",
                    "content": "Была произведена миграция следующих документов.",
                    "nothing": "Миграция документов не потребовалась."
                },
                "error": {
                    "actors": "Во время миграции данных мировых актёров произошла ошибка.",
                    "token": "Во время миграции данных актёра токена {uuid} произошла ошибка.",
                    "users": "Во время миграции данных пользователей произошла ошибка."
                }
            }
        },
        "settings": {
            "addedHighlight": {
                "name": "Выделение добавленных элементов",
                "hint": "Добавленные модулем временные элементы будут выделены на листах персонажа и фамильяра."
            },
            "partyMembers": {
                "name": "Только члены партии",
                "hint": "Когда в модуле извлекается коллекция актеров игроков, должен ли модуль ограничивать ее членами партии (если персонаж состоит в какой-либо партии) или всеми принадлежащими игрокам актерами?"
            },
            "menus": {
                "customs": {
                    "name": "Пользовательские ежедневные приготовления",
                    "hint": "Зарегистрируйте свои ежедневные приготовления в модуле.",
                    "label": "Регистрация"
                },
                "homebrew": {
                    "name": "Настройки домашних правил",
                    "hint": "Добавляйте свои собственные элементы для использования в ежедневных приготовлениях.",
                    "label": "Домашние правила"
                }
            }
        },
        "error": {
            "incompatible": "Присутствуют свои ежедневные приготовления, несовместимые с текущей версией модуля <strong>PF2e Dailies</strong>.",
            "unexpected": "В работе модуля <strong>PF2e Dailies</strong> произошла непредвиденная ошибка. Подробнее см. в консоли (F12)."
        },
        "sheet": {
            "title": "Ежедневные приготовления",
            "unrested": "Требуется отдых",
            "primary": {
                "assign": "Назначить основной сосуд",
                "unassign": "Снять назначение основного сосуда"
            },
            "charges": {
                "label": "Заряды",
                "tooltip": "Сбросить заряды до максимума (макс: {max})"
            }
        },
        "builtin": {
            "dailies": {
                "familiar": "Умения фамильяра",
                "staves": "Подготовить посох",
                "thaumaturge-tome": "Фолиант тауматурга"
            }
        },
        "dialog": {
            "mind-weapon": {
                "title": "Создать ментальное оружие",
                "flavor": "<p>У этого персонажа нет ментального оружия в инвентаре.<br>Чтобы создать его, выберите один из следующих вариантов.",
                "yes": "Создать",
                "no": "Отменить",
                "held-in-one-hand": "Одноручное",
                "held-in-two-hands": "Двуручное",
                "label": "{hand} оружие, наносящее <strong>1{die}</strong> урона{hasTrait}",
                "oneTrait": " и с признаком <strong>{trait1}</strong>",
                "twoTraits": " и с признаками <strong>{trait1}</strong> и <strong>{trait2}</strong>"
            }
        },
        "message": {
            "changes": "Внес следующие изменения во время своих ежедневных приготовлений",
            "noChanges": "Не вносил никаких изменений во время ежедневных приготовлений, вам даже не нужно было об этом знать.",
            "gained": "Временно получил {type}",
            "groups": {
                "resistances": "Получил сопротивления",
                "languages": "Изучил следующие языки",
                "skills": "Обучился следующим навыкам",
                "tome": "Изучил свой фолиант тауматурга",
                "spells": "Готов использовать заклинания",
                "familiar": "Выбрал умения фамильяра",
                "apparition": "Настроился на свои воплощения.",
                "feats": "Изучил способности",
                "scrolls": "Созданы временные свитки",
                "ceremonial": "Выполнил ритуал по созданию церемониального ножа, наполненного заклинанием",
                "staff": "Подготовил посох на день",
                "blade": "Вложил дух в свое оружие",
                "mindsmith": "Сфокусировал разум на своем оружии"
            },
            "rations": {
                "used": "Использовал одно из {name} и осталось {nb}.",
                "last": "Использовал последнее из {name}.",
                "almost": "Использовал одно из {name} и осталось только {nb}."
            }
        },
        "label": {
            "ability": "Способность #{nb}",
            "apparition": {
                "first": "Основное воплощение",
                "primary": "Основное #{nb} ",
                "other": "Воплощение #{nb}"
            },
            "expend": "Потратить #{nb}",
            "rune": "Руна свойства",
            "select": "Выбрать {that}",
            "mind-smith": "Кузнец разума",
            "mind-mental": "Ментальная кузница",
            "mind-runic": "Руническое ментальное кузнечество"
        },
        "interface": {
            "title": "{actor} - Ежедневные приготовления",
            "config": "Конфигурация",
            "noDailies": "У этого персонажа нет ежедневных приготовлений",
            "accept": "Принять",
            "cancel": "Отменить",
            "tooltip": {
                "random": "Это будет выбрано случайным образом",
                "alert": "Нажмите здесь, чтобы решить",
                "notify": "Исключительно информационная запись",
                "search": "Открыть навигатор сборников",
                "clear": "Очистить выбранное",
                "noSelect": "Нет доступных опций",
                "exists": "У персонажа уже есть эта способность"
            },
            "error": {
                "empty": "Некоторые обязательные поля пусты"
            },
            "drop": {
                "notes": {
                    "ace": "Выберите одно заклинание из списка арканных, сакральных, оккультных или природных 4-го ранга или ниже.<br>У этого заклинания не должно быть стоимости, и его время сотворения не может превышать 10 минут. Это заклинание должно иметь целью одно существо, и вы должны быть разрешенной для него целью."
                },
                "error": {
                    "wrongDataType": "Добавлен недопустимый тип данных.",
                    "wrongSource": "Можно использовать только элементы из сборника или мира.",
                    "wrongData": "<strong>{type}</strong> добавленного элемента ({require}).",
                    "require": "необходимо: <strong>{need}</strong>, найдено: <strong>{has}</strong>",
                    "missing": "отсутствует: <strong>{need}</strong>",
                    "invalid": "некорректны: <strong>{has}</strong>",
                    "wrongTraits": "Признаки добавленного элемента на соответствуют фильтру.",
                    "exclude": "<strong>{item}</strong> был исключен из выбора.",
                    "type": {
                        "type": "Неправильный тип",
                        "level": "Неправильный уровень",
                        "category": "Неправильная категория",
                        "categories": "Неправильные категории",
                        "skills": "Неправильные навыки",
                        "source": "Неправильный источник",
                        "rarity": "Неправильная редкость",
                        "rank": "Неправильный ранг",
                        "traditions": "Неправильные обычаи"
                    },
                    "none": "нет"
                }
            },
            "staves": {
                "empty": "Пустой слот",
                "flexible": "Гибкий слот"
            },
            "rations": {
                "yes": "Съесть (осталось {nb})",
                "no": "Не есть",
                "last": "Съесть последнюю порцию"
            },
            "mindsmith": {
                "missing": "Ментальное оружие отсутствует"
            }
        },
        "charges": {
            "label": "Заряды",
            "reset": {
                "title": "Сбросить заряды посоха",
                "content": "Вы уверены что хотите сбросить заряды посоха на их максимальное значение (макс: {max})?"
            },
            "error": {
                "notEnough": "Невозможно сотворить {name} на {level}, не хватает зарядов."
            }
        },
        "staves": {
            "spontaneous": {
                "title": "Использовать спонтанный слот",
                "remaining": "осталось",
                "must": "Вы должны потратить слот спонтанных заклинаний <strong>{rank}</strong>{higher} из {from}",
                "would": "Хотите ли вы израсходовать спонтанный слот заклинания <strong>{rank}</strong> из {from}?",
                "one": "<strong>{entry}</strong>",
                "multi": "любой записи колдовства из следующих",
                "higher": " или выше "
            },
            "error": {
                "missing": "Не получилось определить посох.",
                "notEquipped": "Вы должны взять свой {staff}, чтобы использовать его."
            },
            "action": {
                "pick-up": "Поднять",
                "retrieve": "Достать",
                "sheathe": "Вложить в ножны",
                "draw": "Выхватить"
            }
        },
        "animist": {
            "spellcasting": {
                "focus": "Заклинания сосуда"
            }
        },
        "spellEntry": {
            "name": "Временные заклинания"
        },
        "mindsmith": {
            "weapon": {
                "name": "Ментальное оружие"
            }
        },
        "customs": {
            "title": "Пользовательские ежедневные приготовления",
            "list": {
                "create": "Создать своё приготовление",
                "delete": "Удалить своё приготовление"
            },
            "delete": {
                "title": "Удалить своё приготовление",
                "content": "Вы уверены что хотите удалить это приготовление?"
            },
            "code": {
                "save": "Сохранить своё приготовление",
                "error": "Структура прочитанных данных не соответствует приготовлению.",
                "saved": "Своё приготовление успешно сохранено."
            },
            "readonly": {
                "flavor": "Это приготовление отмечено как <em>только для чтения</em>, поскольку было создано в прошлой версии модуля. Если вы хотите <a>разблокировать</a> его, обновите формат его данных до формата данных текущей версии перед сохранением."
            }
        },
        "config": {
            "filters": "Включенные приготовления",
            "title": "{actor} - Ежедневные конфигурации",
            "animist": {
                "lore": "Убрать суффикс знаний",
                "lores": "Показать сводку знаний",
                "spells": "Показать сводку заклинаний",
                "signatures": "Задать коронные заклинания"
            }
        },
        "homebrew": {
            "title": "Настройки домашних правил",
            "index": {
                "familiar": "Умения фамильяра",
                "animist": "Воплощения анимиста"
            },
            "pack": "Сборник",
            "add": "Добавить запись",
            "delete": "Удалить запись",
            "invalid": "<strong>{entry}</strong> не является ID сборника или UUID типа <strong>{type}</strong>",
            "empty": "Вы должны предоставить ID сборника или UUID типа <strong>{type}</strong>"
        }
    }
}