{
    "pf2e-ruler": {
        "clearMovementHistory": "Очистить историю движения",
        "settings": {
            "rightClickAction": {
                "name": "Действие на правую кнопку мыши",
                "hint": "Какую операцию выполнять при нажатии правой кнопки мыши во время перемещения токена?",
                "choices": {
                    "add": "Добавить точку",
                    "remove": "Убрать точку",
                    "cancel": "Отменить Drag Ruler"
                }
            },
            "tokenHighlighting": {
                "name": "Подсвечивать скорость токена",
                "hint": "Когда подсвечивать скорость токена при использовании линейки.",
                "choices": {
                    "never": "Никогда",
                    "combat": "Только в бою",
                    "always": "Всегда"
                }
            },
            "limitActions": {
                "name": "Ограничивать действия",
                "hint": "Это ограничит количество действий, доступное токену для движения, если он замедлен/ошеломлён."
            },
            "enableMovementHistory": {
                "name": "Включить историю перемещения в бою",
                "hint": "Если включено PF2e Ruler будет запоминать путь, пройденный токеном в свой ход в бою."
            },
            "showPlayerSpeeds": {
                "name": "Показывать скорости игроков",
                "hint": "Если включено, любой токен, которым владеет игрок, будет обладать подсвеченной скоростью, даже если у пользователя нет прав наблюдателя для этого актёра."
            },
            "playerPathfinding": {
                "name": "Включить навигатор для игроков",
                "hint": "При включении даёт игрокам доступ к навигатору."
            },
            "showGMRuler": {
                "name": "Показывать линейку Мастера",
                "hint": "Линейка для Мастера будет показана в зависимости от альянса токена.",
                "choices": {
                    "all": "Показывать всех",
                    "neutral": "Показывать дружественных/нейтральных",
                    "friendly": "Показывать дружественных",
                    "none": "Не показывать"
                }
            },
            "singleAction": "Одиночное действие",
            "doubleAction": "Два действия",
            "tripleAction": "Три действия",
            "quadrupleAction": "Четыре действия",
            "unreachable": "Недостижимое"
        },
        "keybindings": {
            "addWaypoint": "Добавить точку",
            "cancelDrag": "Отменить Drag Ruler",
            "removeWaypoint": "Убрать точку"
        },
        "controls": {
            "dragRuler": "Token Drag Ruler",
            "pathfinding": "Навигатор"
        }
    }
}