{
    "PF2E.Kingmaker": {
        "Abilities": {
            "culture": "Культура",
            "economy": "Экономика",
            "loyalty": "Верность",
            "stability": "Стабильность"
        },
        "AbilityScores": "Значения характеристик",
        "Army": {
            "Adjustment": "Корректировка",
            "Alliance": {
                "Enemy": "Враг",
                "Kingdom": "Королевство",
                "Info": "Текущий альянс армии. Это зависит от того, есть ли в армии владелец-игрок.",
                "Linked": "Токены этой армии сейчас связаны, и обновления должны сохраняться правильно.",
                "LinkError": "Эту армию нельзя связать с токеном. Сделайте это на боковой панели актёров, а затем перетащите новую копию.",
                "UnlinkedError": "Армии королевства должны быть связаны с данными об актёрах, чтобы работать правильно. Нажмите здесь, чтобы включить это."
            },
            "Ammunition": "Боезапас",
            "Armor": "Броня",
            "BasicWarActions": "Базовые военные действия",
            "Condition": {
                "concealed": {
                    "name": "Скрыт"
                }
            },
            "Description": "Описание",
            "Error": {
                "InvalidTacticType": "Тактика {name} не поддерживается армиями {type}"
            },
            "Gear": {
                "GearInfo": "Показать информацию о снаряжении",
                "ItemLevel": "Предмет {level}",
                "Label": "Снаряжение",
                "LevelLabel": "Уровень {level}",
                "AdditionalWeapon": {
                    "Name": "Дополнительное оружие",
                    "Description": "У большинства армий есть только одно оружие — оружие ближнего или дальнего боя. Это снаряжение даёт армии дополнительное оружие другого типа. Армия получает \"Удар\" ближнего или дальнего боя (отличный от имеющегося) с базовым модификатором для своего уровня."
                },
                "MagicWeapons": {
                    "Name": "Магическое оружие ({type})",
                    "Description": "Оружие армии является магическим. Если у армии есть оружие ближнего и дальнего боя, выберите, какое из них станет магическим при покупке этого снаряжения. Вы можете купить это снаряжение дважды — один раз для оружия ближнего боя и один раз для оружия дальнего боя. Если вы покупаете более мощную версию, она заменяет предыдущую, а стоимость более мощной версии в ОР уменьшается на цену заменённого оружия.",
                    "rank1": {
                        "Name": "Магическое оружие",
                        "Description": "Это оружие увеличивает модификатор атаки армии для выбранных \"Ударов\" на 1."
                    },
                    "rank2": {
                        "Name": "Отличное магическое оружие",
                        "Description": "Это оружие увеличивает модификатор атаки армии для выбранных \"Ударов\" на 2."
                    },
                    "rank3": {
                        "Name": "Превосходное магическое оружие",
                        "Description": "Это оружие увеличивает модификатор атаки армии для выбранных \"Ударов\" на 3."
                    }
                },
                "Potions": {
                    "Name": "Зелья исцеления",
                    "Description": "Армия, экипированная зельями исцеления (эти правила не меняются, если вместо них вы снабжаете армию алхимическими лечебными эликсирами), может использовать одну порцию как часть любого действия \"Маневрирования\". Когда армия использует порцию зелий исцеления, она восстанавливает 1 ОЗ. Одновременно армия может иметь до 3 порций зелий исцеления; в отличие от боеприпасов для \"Ударов\" дальнего боя, порции зелий исцеления не восполняются автоматически после военного столкновения — новые порции необходимо покупать."
                },
                "Armor": {
                    "Name": "Магические доспехи",
                    "Description": "Магические доспехи зачарованы, чтобы усилить защиту, которую они дают воинам.",
                    "rank1": {
                        "Name": "Магические доспехи",
                        "Description": "Эти доспехи увеличивают КБ армии на 1."
                    },
                    "rank2": {
                        "Name": "Отличные магические доспехи",
                        "Description": "Эти доспехи увеличивают КБ армии на 2."
                    },
                    "rank3": {
                        "Name": "Превосходные магическии доспехи",
                        "Description": "Эти доспехи увеличивают КБ армии на 3."
                    }
                }
            },
            "Label": "Армия",
            "NamePlaceholder": "Название армии",
            "Potency": "Мощь",
            "Potions": {
                "FullHP": "ОЗ армии уже полные",
                "Label": "Зелья",
                "OutOfPotions": "Больше нет доступных зелий",
                "UsePotion": "Использовать зелье (+1 ОЗ)",
                "UsedPotionHeader": "Зелье использовано",
                "UsedPotionContent": "Армия получила +1 ОЗ. Можно использовать во время манёвров."
            },
            "RecruitmentDC": "КС Найма",
            "RoutedDescription": "ОЗ армии ниже Предела Бегства!",
            "RoutThreshold": "Предел Бегства",
            "Save": {
                "maneuver": "Манёвр",
                "morale": "Мораль"
            },
            "Scouting": "Разведка",
            "SendToChat": "Отправить в чат",
            "Stats": "Статистика",
            "Strikes": {
                "CurrentAmmo": "{current} / {max} выстрелов<br/>Восстановятся в конце военного столкновения.",
                "None": "У этой армии нет оружия: добавьте его в разделе \"Снаряжение\".",
                "Label": "Удары",
                "OutOfAmmo": "Не осталось выстрелов в этом военном столкновении",
                "RestoreAmmunition": "Восстановить боеприпасы",
                "proficiency": "Мастерство",
                "melee": "Ближний бой",
                "ranged": "Дальний бой"
            },
            "Tactics": "Тактики",
            "TacticsFree": "Тактика (Бесплатная)",
            "Toggles": {
                "LiveOffTheLand": "В гексе без поселения",
                "KeepUpThePressure": "Атакуют ту же цель"
            },
            "TacticalWarActions": "Тактические военные действия"
        },
        "Confirm": "Подтвердить",
        "Consumption": {
            "Base": "Базовое потребление",
            "Label": "Потребление",
            "Reduction": "Снижение"
        },
        "Event": {
            "Details": "Подробности текущего события",
            "Random": "Случайное событие"
        },
        "GrantedBy": "Эта особенность была предоставлена {granter} и не может быть удалена",
        "KingdomBuilder": {
            "ActivationMessage": "Начать процесс создания королевства? Прежде чем продолжить, убедитесь, что ваши игроки готовы.",
            "Aspiration": "Стремление",
            "AssignBoostsHeader": "Назначьте свои повышения",
            "Boost": "Повышение",
            "BoostsLabel": "Повышения характеристик",
            "Builder": "Создатель",
            "CancelCreation": "Отменить создание",
            "Complete": "Завершено",
            "Feat": "Способность королевства",
            "FinalizeHeader": "Утвердить королевство",
            "Flaw": "Недостаток",
            "FlawLabel": "Недостаток характеристики",
            "Free": "Свободное",
            "Skills": "Навыки королевства",
            "ManualToggle": "Использовать модификаторы вручную",
            "Missing": {
                "Charter": "Выберите хартию для выбора повышений характеристик.",
                "Heartland": "Выберите центральный район для выбора повышений характеристик.",
                "Government": "Выберите правительство для выбора повышений характеристик."
            },
            "None": "Нет",
            "NotSelected": "Не выбрано",
            "SaveAndContinue": "Сохранить и продолжить",
            "Tabs": {
                "Charter": "Хартия",
                "Heartland": "Центральный район",
                "Government": "Правительство",
                "AbilityScores": "Значения характеристик"
            },
            "Title": "Создать своё королевство"
        },
        "Kingdom": {
            "Activities": "Активности королевства",
            "ArmyConsumption": "Потребление армий",
            "Aspiration": {
                "fame": "Слава",
                "infamy": "Бесславие"
            },
            "BuildHeader": "Создание королевства",
            "BuildElement": {
                "Charter": "Хартия",
                "Heartland": "Центральный район",
                "Government": "Правительство"
            },
            "Capital": "Столица",
            "CapitalPlaceholder": "Название города",
            "CollectDialog": {
                "Title": "Собрать ресурсы",
                "Header": "Содержание: Сбор ресурсов",
                "Description": "Бросьте кость ресурсов {dice} и сгенерируйте следующее?",
                "Disclaimer": "Это заменит ваши текущие очки ресурсов (которые должны были быть конвертированы в очки опыта). Лишние ресурсы будут потеряны."
            },
            "Commodity": {
                "food": "Пища",
                "lumber": "Древесина",
                "luxuries": "Роскошь",
                "ore": "Руда",
                "stone": "Камень"
            },
            "ControlDC": "КС Управления",
            "Invested": "Инвестируемый",
            "InvestedBonus": "Бонус состояния к {ability}",
            "ImportDialog": {
                "Title": "Импортировать активность",
                "Content": "Действия {added} будут добавлены, а действия {updated} будут обновлены, это нормально?"
            },
            "FeatSlot": {
                "Features": "Особенности королевства",
                "Feats": "Способности королевства",
                "Bonus": "Бонусные способности"
            },
            "Leaders": "Лидеры",
            "LeaderMissing": "Нет (Перетащите нового актёра)",
            "LeadershipRole": {
                "ruler": "Правитель",
                "counselor": "Советник",
                "general": "Генерал",
                "emissary": "Эмиссар",
                "magister": "Магистр",
                "treasurer": "Казначей",
                "viceroy": "Наместник",
                "warden": "Страж"
            },
            "NamePlaceholder": "Название королевства",
            "NationType": {
                "territory": "Территория",
                "province": "Провинция",
                "state": "Штат",
                "country": "Страна",
                "dominion": "Доминион"
            },
            "Phases": {
                "commerce": {
                    "Header": "Коммерческая фаза",
                    "Description": "Когда королевство получает доход или заключает торговые соглашения.",
                    "Step1": "<strong>Сбор налогов:</strong> Вы можете делать Сбор налогов 1 раз за ход Королевства, чтобы до конца хода Королевства попытаться усилить свои проверки на основе Экономики. Если вы не пытаетесь \"Собрать налоги\", то вместо этого можете сделать @Check[flat|dc:11]; при успехе уменьшите Беспорядки на 1.",
                    "Step2": "<strong>Одобрить траты:</strong> Вы можете использовать средства королевства для повышения уровня жизни его граждан, выполнив активность \"Улучшение образа жизни\", или вы можете попытаться вывести средства из казны королевства, используя активность \"Воспользоваться казной\".",
                    "Step3": "<strong>Товарооборот:</strong> Если в вашем королевстве есть запасы Товаров, то вы можете выполнить активность \"Торговля товарами\", чтобы увеличить свои ОР в следующий ход.",
                    "Step4": "<strong>Управление торговыми отношениями:</strong> Если у вас заключены торговые соглашения, то можете использовать активность \"Управление торговыми соглашениями\"."
                },
                "leadership": {
                    "Header": "Фаза активностей: Активности лидерства",
                    "Description": "Если в столице вашего королевства есть Ратуша, Замок или Дворец, то каждый игровой персонаж с ролью лидера может совершить вплоть до 3 активностей Лидерства. Если в вашей столице нет ни одного из этих строений, то во время этого шага каждый игровой персонаж может совершить не более 2 активностей Лидерства."
                },
                "region": {
                    "Header": "Фаза активностей: Активности региона",
                    "Description": "Игровые персонажи-лидеры могут совместно выполнить вплоть до 3 активностей Региона."
                },
                "civic": {
                    "Header": "Фаза активностей: Гражданские активности",
                    "Description": "Ваша партия может выполнить по одной Гражданской активности для каждого из поселений королевства."
                },
                "army": {
                    "Header": "Активности армий",
                    "Description": "После того, как игровые персонажи завершат этап Гражданских активностей в ходе Королевства, они могут перейти на этап Активности армий, на котором каждая армия, в настоящее время поддерживаемая королевством, может предпринять одну Активность армии."
                }
            },
            "Resources": {
                "Collect": "Собрать",
                "Dice": "Кость ресурсов",
                "Header": "Ресурсы и товары",
                "Points": "Очки ресурсов",
                "RP": "ОР"
            },
            "Ruin": {
                "corruption": "Испорченность",
                "crime": "Преступность",
                "decay": "Упадок",
                "strife": "Раздор"
            },
            "Size": "Размер",
            "Storage": "Хранилище",
            "Tabs": {
                "Main": "Главная",
                "Activities": "Активности",
                "World": "Мир",
                "Features": "Особенности",
                "Ongoing": "Происходящее"
            },
            "Unrest": "Беспорядок",
            "VacancyPenalty": {
                "ruler": "−1 ко всем проверкам (он складывается с любым другим штрафом безучастности); получаете 1d4 Беспорядков в начале хода Королевства; КС Управления увеличивается на 2",
                "counselor": "−1 ко всем проверкам на основе Культуры",
                "general": "−4 ко всем активностям Войны",
                "emissary": "−1 ко всем проверкам на основе Верности",
                "magister": "−4 ко всем активностям Войны",
                "treasurer": "−1 ко всем проверкам на основе Экономики",
                "viceroy": "−1 ко всем проверкам на основе Стабильности",
                "warden": "−4 ко всем активностям Региона"
            },
            "Vacant": "Вакантно",
            "VacantRole": "Вакантно ({role})"
        },
        "Feature": {
            "Categories": {
                "army-tactic": "Тактика армии",
                "army-war-action": "Военная активность армии",
                "kingdom-activity": "Активность королевства",
                "kingdom-feat": "Способность королевства",
                "kingdom-feature": "Особенность королевства"
            },
            "Tactic": "Тактика"
        },
        "Penalty": "Штраф",
        "Settlement": {
            "Blocks": "Блоки",
            "Details": "Детали поселения",
            "Header": "Поселения королевства",
            "Label": "Поселение",
            "LevelRange": "Диапазон уровней",
            "Name": "Название поселения",
            "Overcrowded": "Переполнено",
            "Population": "Население",
            "Type": {
                "village": "Деревня",
                "town": "Городок",
                "city": "Город",
                "metropolis": "Метрополис"
            },
            "TypeLabel": "Тип"
        },
        "Skills": {
            "agriculture": "Земледелие",
            "arts": "Искусство",
            "boating": "Судоходство",
            "defense": "Оборона",
            "engineering": "Инженерия",
            "exploration": "Исследование",
            "folklore": "Фольклор",
            "industry": "Промышленность",
            "intrigue": "Интрига",
            "magic": "Магия",
            "politics": "Политика",
            "scholarship": "Образованность",
            "statecraft": "Государственность",
            "trade": "Торговля",
            "warfare": "Война",
            "wilderness": "Глушь"
        },
        "WorkSites": {
            "food": {
                "Name": "Сельхозугодья",
                "Description": "Уменьшает потребление в фазе содержания. Пищу необходимо собирать в фазе региона, используя Сбор посевов, Ловля рыбы или Сбор скота. Создаётся с помощью Основать сельхозугодья."
            },
            "lumber": {
                "Name": "Лагеря лесорубов",
                "Description": "Увеличивает количество Древесины, получаемых в фазе содержания. Создаётся с помощью Основать рабочий участок."
            },
            "luxuries": {
                "Name": "Шахты (Драгоценные камни)",
                "Description": "Очень редкий рабочий участок. Даёт Роскошь в фазе содержания."
            },
            "ore": {
                "Name": "Шахты",
                "Description": "Увеличивает количество Руды, получаемых в фазе содержания. Создаётся с помощью Основать рабочий участок."
            },
            "stone": {
                "Name": "Карьеры",
                "Description": "Увеличивает количество Камня, получаемого в фазе содержания. Создаётся с помощью Основать рабочий участок."
            },
            "Label": "Рабочие места",
            "Resource": "Если рабочее место было построено на насыщенном или прибыльном источнике этого материала, отметьте это здесь. Они производят вдвое больше обычного количества ресурса."
        },
        "Charter": {
            "conquest": {
                "Name": "Завоевание",
                "Description": "Ваши спонсоры завоевали какую-то территорию, а её прежние лидеры были разбиты или даже убиты. Эта хартия возлагает на вас ответственность за часть данной завоёванной территории (или земли, оставленной побеждённым врагом) и приказывает вам удерживать и усмирять её во имя вашего покровителя. Народ особенно предан и поддерживает ваше правление (хотя отчасти и из страха), но постоянная угроза возможной войны мешает искусству и не даёт гражданам по-настоящему расслабиться. Если вы выберете эту хартию, вам будет предложено основать свое королевство против Питакса."
            },
            "expansion": {
                "Name": "Экспансия",
                "Description": "Ваш покровитель поручает вам управление владениями, прилегающими к уже заселенным землям, рассчитывая, что ваш народ останется сильным союзником. Более серьезная поддержка от государства вашего покровителя помогает укрепить общество вашего собственного королевства, но данная усиливающаяся зависимость означает, что колебания удачи вашего союзника могут помешать безопасности вашего собственного королевства. Если вы выберете эту хартию, то госпожа Джаманди ожидает, что вы останетесь надежным союзником Рестова."
            },
            "exploration": {
                "Name": "Исследование",
                "Description": "Ваш спонсор хочет, чтобы вы исследовали, очистили и заселили дикую местность вдоль границы собственной территории спонсора. Ваша хартия помогает обеспечить первоначальные постройки (или припасы для их создания) ценой финансового долга."
            },
            "grant": {
                "Name": "Грант",
                "Description": "Ваш покровитель предоставляет большой объем финансирования и других ресурсов без ограничений на характер развития вашего королевства, но требует, чтобы вы нанимали многих из их граждан и союзников. Богатство и запасы вашего государства находятся в безопасности, но часть жителей вашего королевства разделила верность между вашим государством и государством вашего спонсора."
            },
            "open": {
                "Name": "Открытая",
                "Description": "Если вы предпочитаете быть действительно самими по себе и первопроходцами, прокладывающими свой собственный путь, вы можете просто выбрать открытую хартию без ограничений и без прямой поддержки. В этом случае госпожа Джаманди приветствует вашу храбрость и уверенность в себе, но предупреждает, что основать королевство — задача не из легких. Открытая хартия дает одиночное повышение любой характеристики, и у нового государства нет недостатка характеристики."
            }
        },
        "Heartland": {
            "forestOrSwamp": {
                "Name": "Лес или болото",
                "Description": "Ваше государство начинается в лесах или болотах, поэтому нет недостатка в природных ресурсах или чудесах, способствующих развитию воображения и настроения ваших граждан."
            },
            "hillOrPlain": {
                "Name": "Холм или равнина",
                "Description": "Ваша нация начинается в местности, которую легко пересекать. Это отражается на темпераменте ваших граждан; они ценят, что ваш выбор делает их жизнь немного легче."
            },
            "lakeOrRiver": {
                "Name": "Озеро или река",
                "Description": "Основав свое государство на берегу озера или реки, вы обеспечиваете встроенный механизм торговли. Еще до того, как будет построена дорога, купцы и путешественники могут с относительной легкостью добраться до вашего поселения на лодке."
            },
            "mountainOrRuins": {
                "Name": "Гора или руины",
                "Description": "Ваше государство основано в горах или имеет значительное разрушенное место, и использует эти естественные или искусственные особенности для укрепления обороны. Как правило, ваши граждане крепки и выносливы, если не сказать упрямы."
            }
        },
        "Government": {
            "despotism": {
                "Name": "Деспотизм",
                "Description": "Правление вашей страны сосредоточено вокруг одного индивида, который захватил или унаследовал руководство и чья власть абсолютна. У правителя этого царства всё ещё остаются советники и помощники, но только тогда, когда они подчиняются прихотям правителя."
            },
            "feudalism": {
                "Name": "Феодализм",
                "Description": "Власть в вашем государстве принадлежит династической королевской семье, хотя большая часть реальной власти распределена между их вассалами и вотчинами."
            },
            "oligarchy": {
                "Name": "Олигархия",
                "Description": "Правление вашего государства определяется советом влиятельных лидеров, которые принимают решения за всех остальных."
            },
            "republic": {
                "Name": "Республика",
                "Description": "Ваше государство черпает лидерство от своих граждан. Для руководства страной, избранные представители собираются в парламентских органах."
            },
            "thaumocracy": {
                "Name": "Таумократия",
                "Description": "Вашей страной управляют те, кто наиболее искусен в магии, используя свои знания и силу для определения наилучших способов правления. Хотя тип магии, которой владеют правители государства, может изменить ее тематику (или даже название - например, таумократия, управляемая сакральными заклинателями, будет теократией), приведенные ниже подробности остаются неизменными, будь то арканная, сакральная, оккультная, природная или любая комбинация из четырех."
            },
            "yeomanry": {
                "Name": "Йоменство",
                "Description": "Ваше государство децентрализовано и в решении государственных вопросов полагается на местных лидеров и граждан, по мере необходимости посылая представителей друг к другу для решения вопросов, касающихся более чем одного населенного пункта."
            }
        },
        "SIDEBAR": {
            "CreateKingdom": "Создать королевство",
            "OpenSheet": "Открыть лист королевства"
        },
        "Trait": {
            "army": "Армия",
            "cavalry": "Кавалерия",
            "civic": "Гражданская",
            "commerce": "Коммерческая",
            "infantry": "Пехота",
            "kingdom": "Королевство",
            "leadership": "Лидерская",
            "maneuver": "Манёвр",
            "morale": "Мораль",
            "region": "Региональная",
            "siege": "Осадные орудия",
            "skirmisher": "Застрельщики",
            "upkeep": "Содержание"
        },
        "TraitDescription": {
            "cavalry": "Кавалерия состоит из конных бойцов.",
            "infantry": "Пехота состоит из солдат или существ, передвигающихся пешим строем.",
            "siege": "Осадные армии сосредоточены на развертывании осадных машин, а не на личных столкновениях.",
            "skirmisher": "Застрельщики состоят из небольшого количества очень подвижных бойцов."
        }
    }
}