{
	"label": "Hopefinder - Предыстории",
	"entries": {
		"Authority": {
			"name": "Специалист",
			"description": "<p>Вы стали полезны, будучи экспертом в своей области, и эти знания ценны для тех, кто старается сохранить вам жизнь. Без вас было бы потеряно нечто ценное.</p>\n<p><strong>Модификаторы характеристик:</strong> +1 Телосложение, +1 Интеллект</p>\n<p><strong>Навык:</strong> Обучен Знаниям (выберите одну категорию)</p>\n<p><strong>Способность:</strong> @UUID[Compendium.pf2e.feats-srd.Item.W6Gl9ePmItfDHji0] @UUID[Compendium.pf2e.feats-srd.Item.W6Gl9ePmItfDHji0]{Уверенность} в выбранном навыке Знаний</p>\n<p><strong>Снаряжение:</strong> @UUID[Compendium.hopefinder.equipment.Item.UqOwULwHbtUJ61k6] (Масса 10, +2 к Знаниям, если вы тратите хотя бы час на ее изучение)</p>"
		},
		"Builder": {
			"name": "Строитель",
			"description": "<p>Пока все сосредоточены на выживании, вы научились строить, используя любые детали и материалы, которые есть у вас под рукой. Возможно, это не соответствует инструкции, но это работает.</p>\n<p><strong>Модификаторы характеристик:</strong> +1 Сила, +1 Интеллект</p>\n<p><strong>Навык:</strong> Обучен Ремеслу</p>\n<p><strong>Способность:</strong> @UUID[Compendium.pf2e.feats-srd.Item.QLeMH5mQgh28sa5o] ( доспехи, снаряжение, огнестрел, строения, инструменты, оружие)</p>\n<p><strong>Снаряжение:</strong> @UUID[Compendium.hopefinder.equipment.Item.0GNgkcEEIchnM54I] (содержит 4 инструмента на поясе в качестве подготовленных предметов)</p>"
		},
		"Bully": {
			"name": "Задира",
			"description": "<p>После Падения вы быстро поняли, что самый простой способ остаться в живых - это отбирать у других то, что вам нужно, обычно с помощью манипуляций или угрозы насилия. Вам нужно исправить эту репутацию.</p>\n<p><strong>Модификаторы характеристик:</strong> +1 Сила, +1 Харизма</p>\n<p><strong>Навык:</strong> Обучен Запугиванию</p>\n<p><strong>Способность:</strong> @UUID[Compendium.pf2e.feats-srd.Item.xQMz6eDgX75WX2ce]</p>\n<p><strong>Снаряжение:</strong> @UUID[Compendium.hopefinder.equipment.Item.dbVdqig4HeRGlflE]{Кастет} (оружие)</p>"
		},
		"Daredevil": {
			"name": "Смельчак",
			"description": "<p>Вы идете туда, куда другие боятся ступить. За несколько месяцев после чумы все развалилось, и кому-то приходится ползать по руинам в поисках припасов, еды и лекарств.</p>\n<p><strong>Модификаторы характеристик:</strong> +1 Ловкость, +1 Харизма</p>\n<p><strong>Навык:</strong> Обучен Акробатике</p>\n<p><strong>Способность:</strong> @UUID[Compendium.pf2e.feats-srd.Item.LQw0yIMDUJJkq1nD]</p>\n<p><strong>Снаряжение:</strong> @UUID[Compendium.hopefinder.equipment.Item.2CdamhoetlvUeRkF] (предотвращение проверок @UUID[Compendium.pf2e.actionspf2e.Item.M76ycLAqHoAgbcej]{Балансирования} на неровной земле)</p>"
		},
		"Driver": {
			"name": "Водитель",
			"description": "<p>Большинство машин уже не работают, но вы знаете, как найти те, что еще на ходу. Возможность преодолевать большие расстояния, доставляя грузы или забирая припасы, делает ваши навыки бесценными.</p>\n<p><strong>Модификаторы характеристик:</strong> +1 Ловкость, +1 Мудрость</p>\n<p><strong>Навык:</strong> Обучен Вождению</p>\n<p><strong>Способность:</strong> @UUID[Compendium.hopefinder.feats.Item.rrkN2kxrdsjfstvO]</p>\n<p><strong>Снаряжение:</strong> @UUID[Compendium.hopefinder.equipment.Item.EMwumrApcj1wb5tg] (позволяет выкачивать жидкость из цистерн)</p>"
		},
		"Entertainer": {
			"name": "Шоумен",
			"description": "<p>Когда они не напуганы и не спасаются бегством, большинству людей просто скучно. В условиях отсутствия радио, телевидения или интернета вы заняли свою нишу, предоставляя простые развлечения.</p>\n<p><strong>Модификаторы характеристик:</strong> +1 Телосложение, +1 Харизма</p>\n<p><strong>Навык:</strong> Обучен Выступлению</p>\n<p><strong>Способность:</strong> @UUID[Compendium.pf2e.feats-srd.Item.xqAdXRd2gSQcqp5E]</p>\n<p><strong>Снаряжение:</strong> A @UUID[Compendium.hopefinder.equipment.Item.bc8sOVxvNVTEl9gB]</p>"
		},
		"Fixer": {
			"name": "Ремонтник",
			"description": "<p>Все сломалось. К счастью, вы умеете разбираться в механизмах и чинить их. Хотя многое вам не под силу, вы можете починить двигатель, наладить ленточную пилу или заставить снова работать старые часы.</p>\n<p><strong>Модификаторы характеристик:</strong> +1 Сила, +1 Мудрость</p>\n<p><strong>Навык:</strong> Обучен Механике</p>\n<p><strong>Способность:</strong> @UUID[Compendium.pf2e.feats-srd.Item.e4KB4pSkx2lDBNw3]</p>\n<p><strong>Снаряжение:</strong> @UUID[Compendium.hopefinder.equipment.Item.zt0Qhn9fJxVLIKSH] (инструменты для починки и обслуживания механизмов)</p>"
		},
		"Hacker": {
			"name": "Хакер",
			"description": "<p>Электричество может быть отключено, но многие вещи по-прежнему управляются компьютерами. Обеспечить их энергией - это только половина проблемы, а потом в дело вступаете вы. Вы знаете, как заставить компьютеры делать то, что вам нужно.</p>\n<p><strong>Модификаторы характеристик:</strong> +1 Ловкость, +1 Интеллект</p>\n<p><strong>Навык:</strong> Обучен Компьютерам</p>\n<p><strong>Способность:</strong> @UUID[Compendium.hopefinder.feats.Item.83mMgDCDMELC7jRI]</p>\n<p><strong>Снаряжение:</strong> @UUID[Compendium.hopefinder.equipment.Item.KLYPmqyFUSUKfoff] (обеспечивает устройство энергией на ограниченное время)</p>"
		},
		"Liar": {
			"name": "Лжец",
			"description": "<p>С помощью правильных слов можно получить все, что угодно, и вы скажете все, что угодно, чтобы выжить, даже если это означает подвергнуть кого-то опасности из-за ложной информации. Достаточно сказать, что у вас появились враги.</p>\n<p><strong>Модификаторы характеристик:</strong> +1 Ловкость, +1 Харизма</p>\n<p><strong>Навык:</strong> Обучен Обману</p>\n<p><strong>Способность:</strong> @UUID[Compendium.pf2e.feats-srd.Item.B6HbYsLBWb1RR6Fx]</p>\n<p><strong>Снаряжение:</strong> @UUID[Compendium.hopefinder.equipment.Item.xA2tVYzG5pno7vCX] (позволяет вам создавать простую маскировку)</p>"
		},
		"Medic": {
			"name": "Медик",
			"description": "<p>Может, от чумы и нет лекарства, но вы научились устранять практически любые другие травмы и недомогания. Ваши навыки ценятся выше всех остальных, и некоторые пойдут на многое, чтобы заручиться вашей помощью.</p>\n<p><strong>Модификаторы характеристик:</strong> +1 Телосложение, +1 Мудрость</p>\n<p><strong>Навык:</strong> Обучен Медицине</p>\n<p><strong>Способность:</strong> @UUID[Compendium.pf2e.feats-srd.Item.wYerMk6F1RZb0Fwt]</p>\n<p><strong>Снаряжение:</strong> @UUID[Compendium.hopefinder.equipment.Item.PHClSyVXwCmuYZRk] (позволяет вам @UUID[Compendium.pf2e.actionspf2e.1kGNdIIhuglAjIp9]{Лечить раны})</p>"
		},
		"Muscle": {
			"name": "Бугай",
			"description": "<p>Оказалось, что в условиях апокалипсиса сила находит множество применений. Вы можете открывать двери, преодолевать стены и проплывать через затопленные пространства. Не помешает и то, что из вас получится хороший силовик или защитник.</p>\n<p><strong>Модификаторы характеристик:</strong> +1 Сила, +1 Мудрость</p>\n<p><strong>Навык:</strong> Обучен Атлетика</p>\n<p><strong>Способность:</strong> @UUID[Compendium.pf2e.feats-srd.Item.C0Tcelg3BAPhML6J]</p>\n<p><strong>Снаряжение:</strong> @UUID[Compendium.hopefinder.equipment.Item.kRiNuQB3PYvE08pE] или @UUID[Compendium.hopefinder.equipment.Item.MYKmYue9lWgSudXx] (оружие)</p>"
		},
		"Negotiator": {
			"name": "Переговорщик",
			"description": "<p>Никто никому больше не доверяет, и даже самый близкий друг может предать вас. К счастью, вы умеете заставлять людей садиться за стол переговоров и находить общий язык, работая сообща, чтобы сохранить человеческий род.</p>\n<p><strong>Модификаторы характеристик:</strong> +1 Телосложение, +1 Харизма</p>\n<p><strong>Навык:</strong> Обучен Дипломатии</p>\n<p><strong>Способность:</strong> @UUID[Compendium.pf2e.feats-srd.Item.KpFetnUqTiweypZk]</p>\n<p><strong>Снаряжение:</strong> Переводной словарь (выберите один язык, можно медленно переводить)</p>"
		},
		"Runner": {
			"name": "Бегун",
			"description": "<p>Вы знаете, как устроено поселение: у кого есть товар, с кем можно расплатиться, а кого следует избегать. Люди приходят к вам, когда им нужно что-то сделать в этих стенах. Все вас знают.</p>\n<p><strong>Модификаторы характеристик:</strong> +1 Ловкость, +1 Интеллект</p>\n<p><strong>Навык:</strong> Обучен Обществу</p>\n<p><strong>Способность:</strong> @UUID[Compendium.pf2e.feats-srd.Item.X2jGFfLU5qI5XVot]</p>\n<p><strong>Снаряжение:</strong> @UUID[Compendium.hopefinder.equipment.Item.gAVzqJ4tDnUU4hte] (показывает основное место и важные улицы, а также несколько позабытых путей)</p>"
		},
		"Scrounger": {
			"name": "Мусорщик",
			"description": "<p>После Падения осталось много полезного снаряжения, но отличать хорошие вещи от хлама - это почти искусство. К счастью, вы в этом разбираетесь, и у вас всегда найдется что-нибудь ценное на обмен.</p>\n<p><strong>Модификаторы характеристик:</strong> +1 Ловкость, +1 Мудрость</p>\n<p><strong>Навык:</strong> Обучен Выживанию</p>\n<p><strong>Способность:</strong> @UUID[Compendium.pf2e.feats-srd.Item.8qebBeOJsyRIchcu]</p>\n<p><strong>Снаряжение:</strong> Начните игру с дополнительным снаряжением на 2 бартерной стоимости.</p>"
		},
		"Sneak": {
			"name": "Проныра",
			"description": "<p>Оказывается, гораздо проще пережить апокалипсис, если зомби и рейдеры даже не подозревают о вашем присутствии. Последние несколько лет вы не высовывались, затаившись, пока все не закончится.</p>\n<p><strong>Модификаторы характеристик:</strong> +1 Ловкость, +1 Интеллект</p>\n<p><strong>Навык:</strong> Обучен Скрытности</p>\n<p><strong>Способность:</strong> @UUID[Compendium.pf2e.feats-srd.Item.beyw5bdA5hkQbmaG] (выберите руины, сельскую местность, город или дикую местность)</p>\n<p><strong>Снаряжение:</strong> @UUID[Compendium.hopefinder.equipment.Item.QL56tTTVuzlQCRWT] и 2 @UUID[Compendium.hopefinder.equipment.Item.xBYhPtekXHcZbOEy]{Батареи [Маленьких]}</p>"
		},
		"Thief": {
			"name": "Вор",
			"description": "<p>Люди жадны, и они будут утаскивать вещи, которые нужны им для выживания, обменивая их ради собственной выгоды. И что с того, что вы случайно прокрадетесь и возьмете несколько вещей для себя и других. Не то чтобы такие люди не могли позволить себе с этим расстаться.</p>\n<p><strong>Модификаторы характеристик:</strong> +1 Ловкость, +1 Харизма</p>\n<p><strong>Навык:</strong> Обучен Воровству</p>\n<p><strong>Способность:</strong> @UUID[Compendium.pf2e.feats-srd.Item.jDdOqFmZLwE4dblQ]</p>\n<p><strong>Снаряжение:</strong> @UUID[Compendium.hopefinder.equipment.Item.l6TZHXAabM3ioaND] (позволяют вам открывать ключевые замки)</p>"
		}
	}
}