{
	"label": "Hopefinder - Особенности",
	"entries": {
		"Always Ready": {
			"name": "Всегда наготове",
			"description": "<p>Вы методично готовитесь к нападению и стараетесь обезопасить свое окружение. Вы получаете бонус +2 к проверкам инициативы и можете достать оружие свободным действием (<span class=\"pf2-icon\">F</span>) в начале своего первого хода, если оно находится в пределах досягаемости или у вас наготове.</p>"
		},
		"Grim Determination": {
			"name": "Мрачная решимость",
			"description": "<p>Вы видели худшее из того, что было во время Падения, и нужно постараться, чтобы пошатнуть вашу уверенность. Увеличьте свой уровень мастерства Воли на 1 ступень. Если вы когда-нибудь окажетесь в @UUID[Compendium.pf2e.conditionitems.yblD8fOR1J8rDwEQ]{Замешательстве}, @UUID[Compendium.pf2e.conditionitems.9qGBRpbX9NEwtAAr] или обращены в @UUID[Compendium.pf2e.conditionitems.sDPxOjQ9kx2RZE8D], вы можете совершать новый спасбросок в конце каждого своего хода, чтобы прекратить действие эффекта (если спасбросок возможен).</p>"
		},
		"Haggle": {
			"name": "Торг",
			"description": "<p>Когда вы торгуете предметами, вы можете совершить проверку Дипломатии или Обмана против КС Воли торговца. Если вам это удастся, то бартерная стоимость одного предлагаемого вами предмета будет считаться на 1 выше. Если вы критически преуспели, считайте его бартерную стоимость на 2 выше. Если вы получаете критический провал, торговец отказывается иметь с вами дело. Вы можете использовать эту особенность только один раз в день с каждым торговцем.</p>"
		},
		"Hope Springs Eternal": {
			"name": "Вечная надежда",
			"description": "<p>Вы начинаете каждую сессию с 1 дополнительным Очком Надежды, но если вы не потратите хотя бы 1 Очко Надежды за эту сессию, оно будет потеряно. Также не существует ограничений на максимальное количество Очков Надежды.</p>"
		},
		"Innoculated": {
			"name": "Привитый",
			"description": "<p>На 1-ой стадии чумы зомби вы дважды совершаете спасброски Стойкости, чтобы противостоять инфекции, используя лучший результат.</p>"
		},
		"Mental Map": {
			"name": "Карта в голове",
			"description": "<p>Когда вы совершаете проверку Вождения, чтобы @UUID[Compendium.hopefinder.actions.Item.OQd0SU3snsY9JqmW], или проверку Выживания, чтобы не заблудиться или найти самый безопасный маршрут, вы считаете провал успехом, а критический провал - обычным провалом. Кроме того, если вы совершаете проверку Восприятия, чтобы избежать внезапного нападения в знакомой местности (в месте, которое вы свободно исследовали в течение 1 дня или более), вы получаете бонус обстоятельства +2 к этой проверке.</p>"
		},
		"Never Tired": {
			"name": "Неутомимый",
			"description": "<p>Вы не становитесь @UUID[Compendium.pf2e.conditionitems.HL2l2VRSaQHu9lUw]{Утомлены} от ссадин и не становитесь @Condition[Fatigued]{утомлены}, если спите хотя бы 4 часа. Кроме того, вы можете носить предметы на 3 дополнительных Массы (хотя это не позволяет вам носить больше предметов, чем помещается на листе инвентаря).</p>"
		},
		"Scheduling Master": {
			"name": "Мастер планирования",
			"description": "<p>Если вы выполняете задачу, которая занимает 10 минут и воздействует только на одну цель, например @UUID[Compendium.hopefinder.actions.Item.Fccbg2WSomdT9QqP]{Ремонт} или оказание @UUID[Compendium.pf2e.actionspf2e.Item.MHLuKy4nQO2Z4Am1]{Первой помощи}, вы можете тщательно спланировать свое время, чтобы вместо этого воздействовать на две цели. Вы также можете использовать эту особенность для планирования чужого времени, предоставляя ему то же преимущество, но вы должны потратить то же время на руководство, чтобы обеспечить эффективную работу.</p>"
		},
		"Survivor": {
			"name": "Выживший",
			"description": "<p>Hopefinder - это игра, в которую играют без класса персонажа. Этот класс настроит для вас базовую автоматизацию актеров Hopefinder.</p>"
		},
		"Tireless Energy": {
			"name": "Бесконечная энергия",
			"description": "<p>Вы энергичны. Увеличьте свою Скорость на 5 футов. Если вы получаете успех, чтобы @UUID[Compendium.pf2e.actionspf2e.pprgrYQ1QnIDGZiy] или @UUID[Compendium.pf2e.actionspf2e.c8TGiZ48ygoSPofx], расстояние, пройденное вами, увеличивается на 5 футов. Наконец, вы исцеляете 1 дополнительную ссадину каждый раз, когда отдыхаете.</p>"
		},
		"Triage": {
			"name": "Перевязка",
			"description": "<p>Вы можете оказывать @UUID[Compendium.pf2e.actionspf2e.Item.MHLuKy4nQO2Z4Am1]{Первую помощь} и @UUID[Compendium.hopefinder.actions.Item.jIN7minzIXOY3YJk]{Лечить раны} до 6 человек за 20 минут. Когда вы успешно \"Лечите раны\", вы исцеляете дополнительное количество Очков Здоровья, равное вашему уровню.</p>"
		},
		"Zone Out": {
			"name": "Абстракция",
			"description": "<p>Вы можете легко увлечься простой задачей, что позволяет вам сосредоточиться на мельчайших деталях. Вы получаете бонус обстоятельства +2 ко всем проверкам, связанным с активностями @Trait[Exploration]{исследования}, и к проверкам инициативы.</p>"
		}
	}
}