{
	"label": "Эффекты тауматурга",
	"folders": {
		"Amulet": "Амулет",
		"Chalice": "Чаша",
		"Implement Effects": "Эффекты орудия",
		"Lantern": "Фонарь",
		"Regalia": "Регалия",
		"Tome": "Фолиант",
		"Weapon": "Оружие"
	},
	"mapping": {
		"name": {
			"path": "name",
			"converter": "itemNameConverter"
		},
		"description": "system.description.value",
		"rules": {
			"path": "system.rules",
			"converter": "carefulMerge"
		}
	},
	"entries": {
		"Breached Defenses": {
			"name": "Нарушенная защита"
		},
		"Breached Defenses Target": {
			"name": "Цель нарушенной защиты"
		},
		"Cursed Effigy": {
			"name": "Проклятое чучело",
			"description": "<p><strong>Требования:</strong> Вашим последним действием был успешный @UUID[Compendium.pf2e.actionspf2e.Item.VjxZFuUXrCU94MWR]{Удар} по цели вашей @UUID[Compendium.pf2e.actionspf2e.Item.fodJ3zuwQsYnBbtk]{Эксплуатации уязвимости}, и этот \"Удар\" нанёс физический урон.</p><hr /><p>После своей атаки, вы хватаете немного крови, срезанные волосы или другую часть тела существа. Вы добавляете этот материал в заранее созданную куклу, бумажную фигурку или другое чучело, чтобы создать симпатическую связь, которая затрудняет сопротивление вашим умениям. Пока вы @UUID[Compendium.pf2e.actionspf2e.Item.fodJ3zuwQsYnBbtk]{Эксплуатируете уязвимость} против этого существа, оно получает штраф состояния −2 к своим спасброскам против умений тауматурга или предметов, использующих ваш КС класса тауматурга.</p>"
		},
		"Effect: Amulet's Abeyance": {
			"name": "Эффект: Неопределённость амулета",
			"description": "<p>Вы с силой предъявляете свой амулет, чтобы отвратить вред. Вы или целевой союзник в пределах 15 футов получаете сопротивление всему урону от спровоцировавшего урона. Сопротивление равно 2 + ваш уровень.</p>"
		},
		"Effect: Amulet's Abeyance Lingering Resistance": {
			"name": "Эффект: Неопределённость амулета — Длительное сопротивление",
			"description": "<p>Ваш амулет обеспечивает постоянную защиту. Когда вы используете <em>\"Неопределённость амулета\"</em>, вы или ваш союзник выбираете 1 тип урона, нанесённого спровоцировавшей атакой, и получаете сопротивление 5 к этому типу урона до начала вашего следующего хода. На 15-м уровне это длящееся сопротивление увеличивается с 5 до 10.</p>"
		},
		"Effect: Chalice Adept Enabled": {
			"name": "Эффект: Включен адепт чаши",
			"description": "<p>Жизненная сущность, вытекающая из крови, придает силу вашей чаше. Если вы или союзник в пределах 30 футов получаете колющий или рубящий урон от критического попадания противника или получаете продолжительный урон кровотечением, @UUID[Compendium.pf2e.actionspf2e.Item.D91jQs0wleU5ml4K]{Питье из чаши} до конца вашего следующего хода дает пострадавшему существу большее восстановление, чтобы восполнить его утраченную жизненную силу. При отпивании, получаемые существом временные ОЗ увеличиваются до 2 + ваш модификатор Харизмы + ваш уровень. Когда чаша осушена, она исцеляет существу 5 ОЗ за каждый ваш уровень.</p>"
		},
		"Effect: Chalice Drained": {
			"name": "Эффект: Чаша осушена"
		},
		"Effect: Chalice Intensify Enabled": {
			"name": "Эффект: Включено усиление чаши",
			"description": "<p>Ваша усиленная чаша может собирать жизненную силу существа, чтобы наполниться силой. Если вам удалось нанести успешный \"Удар\" по цели своей @UUID[Compendium.pf2e.actionspf2e.Item.fodJ3zuwQsYnBbtk]{Эксплуатации уязвимости}, то вы увеличиваете эффект, если кто-то @UUID[Compendium.pf2e.actionspf2e.Item.D91jQs0wleU5ml4K]{Пьет из чаши} до конца этого хода. Добавьте ещё половину своего уровня к временным ОЗ, если пьющий отпивает, или добавьте свой уровень к восстанавливаемым ОЗ, если пьющий осушает чашу. Этот эффект не суммируется, если вы попали более чем одним \"Ударом\".</p>"
		},
		"Effect: Chalice Temp HP": {
			"name": "Эффект: Временные ОЗ чаши"
		},
		"Effect: Exploit Vulnerability DC": {
			"name": "Эффект: КС эксплуатации уязвимости",
			"description": "<p>Предоставьте КС для броска эксплуатации уязвимости.</p>",
			"rules": {
				"0": {
					"label": "КС эксплуатации уязвимости"
				},
				"1": {
					"label": "Стандартный КС для уровня"
				}
			}
		},
		"Effect: Exploit Vulnerability DC (PwoL)": {
			"name": "Эффект: КС эксплуатации уязвимости [МБУ]",
			"description": "<p>Предоставьте КС для броска эксплуатации уязвимости.</p><p>Для опционального правила Мастерство без уровня</p>",
			"rules": {
				"0": {
					"label": "КС эксплуатации уязвимости"
				},
				"1": {
					"label": "Стандартный КС для уровня"
				}
			}
		},
		"Effect: In Lantern Light (Ally)": {
			"name": "Эффект: В свете фонаря (Союзник)",
			"description": "<p>Магический свет фонаря пытается раскрывать незримое. Вы и ваши союзники в области яркого света фонаря получаете бонус состояния +1 к визуальным проверкам Восприятия, чтобы заметить всё, что тоже находится в области яркого света, и бонус состояния +1 к проверкам @UUID[Compendium.pf2e.actionspf2e.Item.1OagaWtBpVXExToo]{Вспомнить информацию} относительно существ в области яркого света, поскольку свет раскрывает их истинную суть.</p>",
			"rules": {
				"0": {
					"label": "В свете фонаря"
				},
				"1": {
					"label": "В свете фонаря"
				}
			}
		},
		"Effect: In Lantern Light (Enemy)": {
			"name": "Эффект: В свете фонаря (Враг)"
		},
		"Effect: Intensify Vulnerability (Amulet)": {
			"name": "Эффект: Усиление уязвимости (Амулет)",
			"description": "<p>Ваш амулет отражает попытки существа навредить вам. Вы получаете бонус состояния +2 к КБ и спасброскам против цели вашей @UUID[Compendium.pf2e.actionspf2e.Item.fodJ3zuwQsYnBbtk]{Эксплуатации уязвимости}.</p>"
		},
		"Effect: Intensify Vulnerability (Chalice)": {
			"name": "Эффект: Усиление уязвимости (Чаша)",
			"description": "<p>Ваша усиленная чаша может собирать жизненную силу существа, чтобы наполниться силой. Если вам удалось нанести успешный \"Удар\" по цели своей @UUID[Compendium.pf2e.actionspf2e.Item.fodJ3zuwQsYnBbtk]{Эксплуатации уязвимости}, то вы увеличиваете эффект, если кто-то @UUID[Compendium.pf2e.actionspf2e.Item.D91jQs0wleU5ml4K]{Пьет из чаши} до конца этого хода. Добавьте ещё половину своего уровня к временным ОЗ, если пьющий отпивает, или добавьте свой уровень к восстанавливаемым ОЗ, если пьющий осушает чашу. Этот эффект не суммируется, если вы попали более чем одним \"Ударом\".</p>"
		},
		"Effect: Intensify Vulnerability (Lantern)": {
			"name": "Эффект: Усиление уязвимости (Фонарь)",
			"description": "<p>Свет вашего фонаря вспыхивает и ярко горит, не оставляя теней, в которых могут скрываться секреты и враги. Против цели вашей @UUID[Compendium.pf2e.actionspf2e.Item.fodJ3zuwQsYnBbtk]{Эксплуатации уязвимости} бонусы состояния от преимущества посвященного фонаря увеличиваются до +2. Это существо получает штраф состояния −2 к проверкам Обмана и Скрытности, пока находится в свете фонаря. Существо не может быть @UUID[Compendium.pf2e.conditionitems.Item.DmAIPqOBomZ7H95W]{Скрыто} пока находится в свете фонаря, однако оно всё ещё может стать @UUID[Compendium.pf2e.conditionitems.Item.iU0fEDdBp3rXpTMC]{Спрятанным} или @UUID[Compendium.pf2e.conditionitems.Item.VRSef5y1LmL2Hkjf]{Необнаруженным}, используя укрытие или другие средства, но не состояние @Condition[Concealed]{сокрытия}.</p>",
			"rules": {
				"0": {
					"text": "Против цели вашей @UUID[Compendium.pf2e.actionspf2e.Item.fodJ3zuwQsYnBbtk]{Эксплуатации уязвимости} бонусы состояния от преимущества посвященного фонаря увеличиваются до +2. Это существо получает штраф состояния −2 к проверкам Обмана и Скрытности, пока находится в свете фонаря. Существо не может быть @UUID[Compendium.pf2e.conditionitems.Item.DmAIPqOBomZ7H95W]{Скрыто} пока находится в свете фонаря, однако оно всё ещё может стать @UUID[Compendium.pf2e.conditionitems.Item.iU0fEDdBp3rXpTMC]{Спрятанным} или @UUID[Compendium.pf2e.conditionitems.Item.VRSef5y1LmL2Hkjf]{Необнаруженным}, используя укрытие или другие средства, но не состояние @Condition[Concealed]{сокрытия}."
				}
			}
		},
		"Effect: Intensify Vulnerability (Regalia)": {
			"name": "Эффект: Усиление уязвимости (Регалия)",
			"description": "<p>Благодаря вашей регалии вы с каждым успехом кажетесь все более уверенным и вдохновляющим. Каждый раз, когда вы успешно @UUID[Compendium.pf2e.actionspf2e.Item.VjxZFuUXrCU94MWR]{Ударяете} цель своей @UUID[Compendium.pf2e.actionspf2e.Item.fodJ3zuwQsYnBbtk]{Эксплуатации уязвимости}, выберите союзника, которого можете видеть. До начала вашего следующего хода, этот союзник получает бонус обстоятельства +1 к своим броскам атак по этому существу. Если ваш бросок атаки был критическим попаданием, то этот бонус обстоятельства увеличивается до +2.</p>",
			"rules": {
				"0": {
					"text": "Выберите союзника, которого вы можете видеть, для получения бонуса обстоятельства +1 к броскам атаки по вашей цели до начала вашего следующего хода.\n@UUID[Compendium.pf2e-thaum-vuln.thaumaturge-effects.Item.gEfHdas8he98C9rR]{Усиление регалии: Успех}"
				},
				"1": {
					"text": "Выберите союзника, которого вы можете видеть, для получения бонуса обстоятельства +2 к броскам атаки по вашей цели до начала вашего следующего хода.\n@UUID[Compendium.pf2e-thaum-vuln.thaumaturge-effects.Item.CGANYKdu4lVXj0nk]{Усиление регалии: Критический успех}"
				}
			}
		},
		"Effect: Intensify Vulnerability (Regalia) (critical success)": {
			"name": "Эффект: Усиление уязвимости (Регалия) (критический успех)",
			"description": "<p>Бонус обстоятельства +2 для бросков атаки по цели тауматурга.</p>",
			"rules": {
				"0": {
					"label": "Критический успех Усиления уязвимости регалии"
				}
			}
		},
		"Effect: Intensify Vulnerability (Regalia) (success)": {
			"name": "Эффект: Усиление уязвимости (Регалия) (успех)",
			"description": "<p>Бонус обстоятельства +1 для бросков атаки по цели тауматурга.</p>",
			"rules": {
				"0": {
					"label": "Успех Усиления уязвимости регалии"
				}
			}
		},
		"Effect: Intensify Vulnerability (Tome)": {
			"name": "Эффект: Усиление уязвимости (Фолиант)",
			"description": "<p>Сила вашего фолианта не только считывает текущее бытие существа, но даже записывает его будущие действия. Когда вы используете @UUID[Compendium.pf2e.actionspf2e.Item.HAmGozJwLAal5v82]{Усилить уязвимость}, бросьте d20 и отложите результат в сторону. В любое время до начала своего следующего хода вы можете использовать этот отложенный результат d20 для броска атаки @UUID[Compendium.pf2e.actionspf2e.Item.VjxZFuUXrCU94MWR]{Удара} по цели вашего \"Усиления уязвимости\", вместо того чтобы бросать новый d20; это эффект @Trait[Fortune]{удачи}.</p>",
			"rules": {
				"0": {
					"label": "Усиление уязвимости фолианта"
				}
			}
		},
		"Effect: Intensify Vulnerability (Weapon)": {
			"name": "Эффект: Усиление уязвимости (Оружие)",
			"description": "<p>Ваше оружие, почти по собственной воле, притягивается к жизненно важным местам противника. Вы получаете бонус состояния +2 к броскам атак по цели вашей @UUID[Compendium.pf2e.actionspf2e.Item.fodJ3zuwQsYnBbtk]{Эксплуатации уязвимости}.</p>",
			"rules": {
				"0": {
					"label": "Усиление уязвимости оружия"
				}
			}
		},
		"Effect: Primary EV Target": {
			"name": "Эффект: Основная цель ЭУ",
			"description": "<p>Помечает основную цель \"Эксплуатации уязвимости\"</p>"
		},
		"Effect: Regalia Aura - Adept": {
			"name": "Эффект: Аура регалии — Адепт",
			"description": "<p>Бонус состояния +1 к спасброскам против @Trait[Mental]{ментальных} и бонус состояния +2 к броскам урона. Бонус состояния +3 к броскам урона на 11-м уровне, и +4 на 17-м уровне.</p>"
		},
		"Effect: Regalia Aura - Initiate": {
			"name": "Эффект: Аура регалии — Посвящённый",
			"description": "<p>Бонус состояния +1 к спасброскам против @Trait[Fear]{страха}.</p>"
		},
		"Effect: Regalia Aura - Paragon": {
			"name": "Эффект: Аура регалии — Парагон",
			"description": "<p>Бонус состояния +1 к спасброскам против @Trait[Mental]{ментальных} и бонус состояния +2 к броскам урона. Бонус состояния +3 к броскам урона на 11-м уровне, и +4 на 17-м уровне.</p><p>Если союзников в вашей вдохновляющей ауре взяли в тиски, то они от этого не @UUID[Compendium.pf2e.conditionitems.Item.AJh5ex99aV6VTggg]{Застигнуты врасплох}, если только вы тоже не взяты в тиски. Если один из ваших союзников в ауре @UUID[Compendium.pf2e.conditionitems.Item.i3OJZU2nk64Df3xm]{Неуклюж}, @UUID[Compendium.pf2e.conditionitems.Item.MIRkyAjyBeXivMa7]{Ослаблен}, @UUID[Compendium.pf2e.conditionitems.Item.e1XGnhKNSQIm5IXg]{Одурманен}, @UUID[Compendium.pf2e.conditionitems.Item.TBSHQspnbcqxsmjL]{Напуган} или испытывает @UUID[Compendium.pf2e.conditionitems.Item.fesd1n5eVhpCSS18]{Тошноту}, то штраф состояния, получаемый союзником от этого состояния, на 1 меньше, пока союзник остаётся в ауре, если только вы тоже не подвержены такому же состоянию.</p>",
			"rules": {
				"2": {
					"label": "Тауматург не взят в тиски"
				}
			}
		},
		"Effect: Tome Implement": {
			"name": "Эффект: Орудие — фолиант",
			"description": "<p>Орудия-фолианты воплощают утраченные знания и потусторонние озарения. Хотя наиболее распространенной является потрепанная книга, орудия-фолианты могут иметь столько же различных форм, сколько существует способов хранения знаний — от резных глиняных табличек до связок шнуров с узелками. Орудия-фолианты ассоциируются с мастью харро книг и астрологическими знаками звездочета и <a href=https://clck.ru/yXqn4>подземного дракона</a>.</p><h3><strong>Преимущество посвящённого</strong></h3><p>Пока вы держите свой фолиант, на открытых страницах появляются строки текста, раскрывающие полезную информацию. Пока держите свой фолиант, вы получаете бонус обстоятельства +1 ко всем проверкам навыков для @UUID[Compendium.pf2e.actionspf2e.Item.1OagaWtBpVXExToo]{Вспомнить информацию}.</p><p>Во время своих ежедневных приготовлений вы можете получить обученный уровень мастерства в 2 навыках по своему выбору, пока не подготовитесь снова. Вы сохраняете данное преимущество до тех пор, пока фолиант находится при вас, даже если вы не держите его. На 3-м уровне вы эксперт в одном из этих навыков и обучены другому, а на 5-м уровне вы эксперт обоих навыков. Поскольку эти уровни мастерства временные, вы не можете использовать их как предварительное условие для увеличения навыка или постоянной опции персонажа, например, способности.</p><h3><strong>Преимущество адепта</strong></h3><p>В дополнение к преимуществам посвященного, ваш фолиант записывает сведения о существах, которые вы можете использовать, чтобы сразить их. Держа свой фолиант, каждый раунд в начале вашего хода вы совершаете проверку @UUID[Compendium.pf2e.actionspf2e.Item.1OagaWtBpVXExToo]{Вспомнить информацию} о выбранном вами существе, которое вы замечаете. Если проверка успешна, то вы до начала своего следующего хода получаете бонус обстоятельства +1 к вашему следующему броску атаки по этому существа.</p><p>Когда вы получаете временные уровни мастерства навыков во время ежедневных приготовлений, один из них становится экспертным, а другой - мастерским. На 9-м уровне вы мастер обоих навыков.</p><h3><strong>Преимущество парагона</strong></h3><p>В дополнение к другим преимуществам, информация из вашего фолианта предупреждает вас о засадах и атаках противников. Пока держите свой фолиант, вы всегда можете кидать инициативу, против существ или @Trait[Haunt]{призраков}, проверкой навыка @UUID[Compendium.pf2e.classfeatures.Item.cvQmPkJtybMcHinK]{Эзотерических Знаний}. Если вы так делаете, то получите к своему броску инициативы бонус обстоятельства +3.</p><p>При удержании фолианта, бонус обстоятельства от преимущества посвященного к @UUID[Compendium.pf2e.actionspf2e.Item.1OagaWtBpVXExToo]{Вспомнить информацию} увеличивается с +1 до +2. Когда вы получаете успех проверки \"Вспомнить информацию\", полученной от преимущества адепта фолианта, этот бонус применяется не только к следующему броску атаки, а ко всем броскам атак, которые вы совершаете до начала своего следующего хода. Наконец, когда вы получаете временные уровни мастерства навыков, оба они становятся легендарными.</p>"
		},
		"Esoteric Warden Effect": {
			"name": "Эффект эзотерической защиты",
			"description": "<p>При успешном применении против существа антитетического материала вы также защищаете себя от его следующих атак. Когда вы совершаете успешную проверку @UUID[Compendium.pf2e.actionspf2e.Item.fodJ3zuwQsYnBbtk]{Эксплуатации уязвимости}, то получаете бонус состояния +1 к своему КБ против следующей атаки этого существа и бонус состояния +1 к вашему следующему спасброску против этого существа; при критическом успехе эти бонусы равны +2. Вы можете получить эти бонусы только 1 раз в день против конкретного существа, и это преимущество заканчивается, если вы снова \"Эксплуатируете уязвимость\".</p>"
		},
		"Exploit Mortal Weakness": {
			"name": "Эксплуатировать Смертельную слабость"
		},
		"Exploit Personal Antithesis": {
			"name": "Эксплуатировать Личную антитезу"
		},
		"Mortal Weakness Target": {
			"name": "Цель Смертельной слабости"
		},
		"Personal Antithesis Target": {
			"name": "Цель Личной антитезы"
		},
		"Thaumaturge Recall Knowledge": {
			"name": "Вспомнить информацию тауматурга",
			"description": "<p>Добавляет переключаемую опцию броска для действий \"Вспомнить информацию\" \"Эксплуатирования уязвимости\".</p>"
		},
		"Tome Adept RK": {
			"name": "Вспомнить информацию Адепта тома",
			"description": "<p>Была совершена проверка \"Вспомнить информацию\" адепта тома. В случае успеха, отмечает токен, который был целью проверки.</p>"
		},
		"Off-Guard (EV Critical Failure)": {
			"name": "Застигнут врасплох (Критический провал ЭУ)",
			"description": "<p>Критический провал \"Эксплуатирования уязвимости\" тауматурга.</p>"
		},
		"Glimpse Vulnerability": {
			"name": "Проблеск уязвимости"
		},
		"Glimpse Vulnerability Target": {
			"name": "Цель проблеска уязвимости"
		}
	}
}