{
  "baseWeapons": {
    "baseball-bat": "Бейсбольная бита",
    "branch": "Ветка",
    "brass-knuckles ": "Кастет",
    "brick": "Кирпич",
    "crafted-spear": "Самодельное копье",
    "crude-spear": "Примитивное копье",
    "garden-shears": "Садовые ножницы",
    "golf-club": "Клюшка для гольфа",
    "hand-axe": "Топорик",
    "kitchen-knife": "Кухонный нож",
    "pocket-knife": "Карманный нож",
    "screwdriver": "Отвертка",
    "shiv": "Заточка",
    "chainsaw": "Бензопила",
    "combat-knife": "Боевой нож",
    "crude-sword": "Примитивный меч",
    "fire-axe": "Пожарный топор",
    "katana": "Катана",
    "machete": "Мачете",
    "sledgehammer": "Кувалда",
    "bottle": "Бутылка",
    "crafted-bow": "Самодельный лук",
    "crude-bow": "Примитивный лук",
    "crude-pistol": "Примитивный пистолет",
    "crude-rifle": "Примитивная авинтовка",
    "double-barrel-shotgun": "Двуствольный дробовик",
    "hunting-rifle": "Охотничья винтовка",
    "molotov-cocktail": "Коктейль Молотова",
    "pocket-pistol": "Карманный пистолет",
    "revolver": "Револьвер",
    "frag-grenade": "Осколочная граната",
    "incendiary-grenade": "Зажигательная граната",
    "tear-gas-grenade": "Газовая граната",
    "compound-bow": "Составной лук",
    "crossbow": "Арбалет",
    "hand-cannon": "Ручная пушка",
    "heavy-machinegun": "Тяжелый пулемет",
    "light-machinegun": "Легкий пулемет",
    "military-machinegun": "Военный пулемет",
    "pump-shotgun": "Помповый дробовик",
    "semiauto-pistol": "Полуавтоматический пистолет",
    "semiauto-shotgun": "Полуавтоматический дробовик",
    "sniper-rifle": "Снайперская винтовка",
    "heavy-tool": "Тяжелый инструмент"
  },
    "equipmentTraits": {
        "bullet": "Пуля",
        "cloth": "Ткань",
        "cover": {
            "label": "Укрытие",
            "description": "Вы можете использовать действие @UUID[Compendium.pf2e.actionspf2e.Item.ust1jJSCZQUhBZIz], чтобы спрятаться за этим щитом, что дает вам бонус +2 к вашему КБ до начала вашего следующего хода. После того как вы \"Укрылись\", щит дает указанное сопротивление атакам до начала вашего следующего хода или до тех пор, пока он не будет сломан."
        },
        "electronic": "Электроника",
        "fuel": "Топливо",
        "hazardous": {
            "label": "Ограждающий",
            "description": "Этот доспех обеспечивает защиту от опасных веществ и сред. Нося эти доспехи, вы получаете бонус предмета +4 к броскам спасбросков против кислоты, огня, инфекций, яда и дыма. Бонус уменьшается до +2, если доспех сломан (и до 0, если доспех уничтожен)."
        },
        "helmet": {
            "label": "Шлем",
            "description": "Этот доспех включает в себя шлем, обеспечивающий защиту от критических ударов."
          },
          "leather": "Кожа",
          "medicine": "Медикамент",
          "patchwork": "Самодельный",
          "power": "Энергия",
        "sealed": {
            "label": "Герметичный",
            "description": "Этот доспех обеспечивает полную защиту от опасных веществ и сред. Нося этот доспех, вы автоматически получаете успех во всех спасбросках против кислоты, огня, инфекции, яда и дыма. Если доспех сломан, вы получаете бонус предмета +4 против этих эффектов (и 0, если доспех уничтожен)."
        },
        "synthetic": "Синтетика",
        "tool": {
            "label": "Инструмент",
            "description": "Это оружие также является инструментом и может быть использовано в ряде проверок навыков."
        },
        "warm": {
            "label": "Утепленный",
            "description": "Трансцендентность направляет мощь вашей божественной искры через одну из ваших икон, чтобы превзойти смертность и совершить чудесное деяние. Чтобы использовать умение трансцендентности иконы, ваша божественная искра должны наделять силой эту икону. Сразу после использования умения трансцендентности, ваша божественная искра извергается из этой иконы и попадает в другую икону по вашему выбору. Каждый раунд вы можете использовать только одно умение трансцендентности."
        }
    },
    "featTraits": {
      "advanced": "Продвинутая",
      "agility": "Проворство",
      "basic": "Основная",
      "brawn": "Мощь",
      "building": "Строительство",
      "close": "Ближний бой",
      "cunning": "Хитрость",
      "greater": "Выдающаяся",
      "healing": "Лечение",
      "leadership": "Лидерство",
      "ranged": "Дальний бой",
      "role": "Роль",
      "technology": "Технологии"
    },
    "weaponGroups": {
      "blade": "Клинковое",
      "fuel": "Топливное",
      "grenade": "Граната",
      "pistol": "Пистолет",
      "rifle": "Винтовка",
      "shotgun": "Дробовик",
      "tool": "Инструмент",
      "patchwork": "Самодельное"
    },
    "weaponTraits": {
      "burst": {
        "label": "Автоматическое",
        "description": "Это оружие способно стрелять очередями, что означает, что ваш штраф множественной атаки не увеличивается до тех пор, пока вы не совершите действие, не являющееся \"Ударом\", или пока не закончится ваш ход."
      },
      "Обойма-1": {
        "label": "Обойма 1",
        "description": "Этот признак показывает, сколько атак может совершить оружие, прежде чем потребуется его перезарядить."
      },
      "Обойма-2": {
        "label": "Обойма 2",
        "description": "Этот признак показывает, сколько атак может совершить оружие, прежде чем потребуется его перезарядить."
      },
      "Обойма-5": {
        "label": "Обойма 5",
        "description": "Этот признак показывает, сколько атак может совершить оружие, прежде чем потребуется его перезарядить."
      },
      "Обойма-6": {
        "label": "Обойма 6",
        "description": "Этот признак показывает, сколько атак может совершить оружие, прежде чем потребуется его перезарядить."
      },
      "Обойма-10": {
        "label": "Обойма 10",
        "description": "Этот признак показывает, сколько атак может совершить оружие, прежде чем потребуется его перезарядить."
      },
      "Обойма-12": {
        "label": "Обойма 12",
        "description": "Этот признак показывает, сколько атак может совершить оружие, прежде чем потребуется его перезарядить."
      },
      "Обойма-20": {
        "label": "Обойма 20",
        "description": "Этот признак показывает, сколько атак может совершить оружие, прежде чем потребуется его перезарядить."
      },
      "Обойма-30": {
        "label": "Обойма 30",
        "description": "Этот признак показывает, сколько атак может совершить оружие, прежде чем потребуется его перезарядить."
      },
      "Обойма-60": {
        "label": "Обойма 60",
        "description": "Этот признак показывает, сколько атак может совершить оружие, прежде чем потребуется его перезарядить."
      },
      "deadly": {
        "label": "Смертоносное",
        "description": "Оружие с этим признаком особенно опасно. При критическом попадании цель получает тройной урон (вместо двойного). Если результат броска атаки на 20 выше, чем КБ цели, атака автоматически снижает цель до 0 Очков Здоровья."
      },
      "nonlethal": {
        "label": "Нелетальное",
        "description": "Это оружие не наносит урона. Вместо этого цель получает 1 ссадину при попадании (2 при критическом попадании). Если у атакующего бонус Силы +3 или больше, добавьте 1 ссадину. Нелетальные атаки не действуют на зомби. Эти ссадины обычно преодолевают сопротивление доспехов, но доспехи с сопротивлением 5 и более снижают количество ссадин от нелетальной атаки на 1."
      },
      "strength-0": {
        "label": "Сила +0",
        "description": "К броскам урона, сделанным с помощью оружия дальнего боя с этим признаком, можно добавить до указанного бонуса Силы. Если у владельца есть штраф от Силы, он вычитается из броска урона."
      },
      "strength-1": {
        "label": "Сила +1",
        "description": "К броскам урона, сделанным с помощью оружия дальнего боя с этим признаком, можно добавить до указанного бонуса Силы. Если у владельца есть штраф от Силы, он вычитается из броска урона."
      },
      "strength-2": {
        "label": "Сила +2",
        "description": "К броскам урона, сделанным с помощью оружия дальнего боя с этим признаком, можно добавить до указанного бонуса Силы. Если у владельца есть штраф от Силы, он вычитается из броска урона."
      },
      "strength-3": {
        "label": "Сила +3",
        "description": "К броскам урона, сделанным с помощью оружия дальнего боя с этим признаком, можно добавить до указанного бонуса Силы. Если у владельца есть штраф от Силы, он вычитается из броска урона."
      },
      "strength-4": {
        "label": "Сила +4",
        "description": "К броскам урона, сделанным с помощью оружия дальнего боя с этим признаком, можно добавить до указанного бонуса Силы. Если у владельца есть штраф от Силы, он вычитается из броска урона."
      },
      "axe": "Топор",
      "blade": "Клинок",
      "bow": "Лук",
      "club": "Дубинка",
      "pistol": "Пистолет",
      "rifle": "Винтовка",
      "grenade": "Граната",
      "fuel": "Топливо",
      "patchwork": "Самодельное",
      "shotgun": "Дробовик",
      "gas": "Газовое",
      "tool": {
        "label": "Инструмент",
        "description": "Это оружие также является инструментом и может быть использовано в ряде проверок навыков."
      }
    }
  }